Record Length,2.500000e+03,,   0.002078000000,   0.00120,
Sample Interval,2.000000e-07,,   0.002078200000,   0.00160,
Trigger Point,-1.039000000000e+04,,   0.002078400000,   0.00200,
,,,   0.002078600000,   0.00040,
,,,   0.002078800000,   0.00200,
,,,   0.002079000000,   0.00120,
Source,CH2,,   0.002079200000,   0.00200,
Vertical Units,V,,   0.002079400000,   0.00160,
Vertical Scale,1.000000e-02,,   0.002079600000,   0.00080,
Vertical Offset,-1.920000e-02,,   0.002079800000,   0.00080,
Horizontal Units,s,,   0.002080000000,   0.00200,
Horizontal Scale,5.000000e-05,,   0.002080200000,   0.00200,
Pt Fmt,Y,,   0.002080400000,   0.00160,
Yzero,0.000000e+00,,   0.002080600000,   0.00080,
Probe Atten,1.000000e+00,,   0.002080800000,   0.00120,
Model Number,TDS1001B,,   0.002081000000,   0.00160,
Serial Number,C059819,,   0.002081200000,   0.00160,
Firmware Version,FV:v22.01,,   0.002081400000,   0.00120,
,,,0.002081600000,   0.00080,
,,,0.002081800000,   0.00080,
,,,0.002082000000,   0.00080,
,,,0.002082200000,   0.00080,
,,,0.002082400000,   0.00000,
,,,0.002082600000,   0.00040,
,,,0.002082800000,   0.00080,
,,,0.002083000000,   0.00040,
,,,0.002083200000,  -0.00040,
,,,0.002083400000,   0.00000,
,,,0.002083600000,  -0.00080,
,,,0.002083800000,  -0.00160,
,,,0.002084000000,  -0.00120,
,,,0.002084200000,  -0.00080,
,,,0.002084400000,  -0.00120,
,,,0.002084600000,  -0.00240,
,,,0.002084800000,  -0.00160,
,,,0.002085000000,  -0.00200,
,,,0.002085200000,  -0.00200,
,,,0.002085400000,  -0.00200,
,,,0.002085600000,  -0.00200,
,,,0.002085800000,  -0.00280,
,,,0.002086000000,  -0.00240,
,,,0.002086200000,  -0.00320,
,,,0.002086400000,  -0.00200,
,,,0.002086600000,  -0.00320,
,,,0.002086800000,  -0.00360,
,,,0.002087000000,  -0.00360,
,,,0.002087200000,  -0.00360,
,,,0.002087400000,  -0.00400,
,,,0.002087600000,  -0.00440,
,,,0.002087800000,  -0.00400,
,,,0.002088000000,  -0.00440,
,,,0.002088200000,  -0.00360,
,,,0.002088400000,  -0.00400,
,,,0.002088600000,  -0.00320,
,,,0.002088800000,  -0.00320,
,,,0.002089000000,  -0.00440,
,,,0.002089200000,  -0.00400,
,,,0.002089400000,  -0.00400,
,,,0.002089600000,  -0.00440,
,,,0.002089800000,  -0.00320,
,,,0.002090000000,  -0.00360,
,,,0.002090200000,  -0.00320,
,,,0.002090400000,  -0.00320,
,,,0.002090600000,  -0.00360,
,,,0.002090800000,  -0.00280,
,,,0.002091000000,  -0.00280,
,,,0.002091200000,  -0.00240,
,,,0.002091400000,  -0.00240,
,,,0.002091600000,  -0.00240,
,,,0.002091800000,  -0.00160,
,,,0.002092000000,  -0.00160,
,,,0.002092200000,  -0.00200,
,,,0.002092400000,  -0.00120,
,,,0.002092600000,  -0.00200,
,,,0.002092800000,  -0.00040,
,,,0.002093000000,  -0.00080,
,,,0.002093200000,  -0.00120,
,,,0.002093400000,   0.00000,
,,,0.002093600000,   0.00000,
,,,0.002093800000,   0.00080,
,,,0.002094000000,   0.00040,
,,,0.002094200000,   0.00040,
,,,0.002094400000,   0.00040,
,,,0.002094600000,   0.00040,
,,,0.002094800000,   0.00120,
,,,0.002095000000,   0.00080,
,,,0.002095200000,   0.00200,
,,,0.002095400000,   0.00200,
,,,0.002095600000,   0.00200,
,,,0.002095800000,   0.00240,
,,,0.002096000000,   0.00240,
,,,0.002096200000,   0.00280,
,,,0.002096400000,   0.00320,
,,,0.002096600000,   0.00280,
,,,0.002096800000,   0.00240,
,,,0.002097000000,   0.00280,
,,,0.002097200000,   0.00320,
,,,0.002097400000,   0.00240,
,,,0.002097600000,   0.00240,
,,,0.002097800000,   0.00240,
,,,0.002098000000,   0.00280,
,,,0.002098200000,   0.00320,
,,,0.002098400000,   0.00280,
,,,0.002098600000,   0.00160,
,,,0.002098800000,   0.00240,
,,,0.002099000000,   0.00200,
,,,0.002099200000,   0.00200,
,,,0.002099400000,   0.00200,
,,,0.002099600000,   0.00160,
,,,0.002099800000,   0.00240,
,,,0.002100000000,   0.00160,
,,,0.002100200000,   0.00200,
,,,0.002100400000,   0.00040,
,,,0.002100600000,   0.00000,
,,,0.002100800000,   0.00040,
,,,0.002101000000,  -0.00080,
,,,0.002101200000,  -0.00040,
,,,0.002101400000,   0.00000,
,,,0.002101600000,  -0.00120,
,,,0.002101800000,  -0.00080,
,,,0.002102000000,  -0.00160,
,,,0.002102200000,  -0.00200,
,,,0.002102400000,  -0.00240,
,,,0.002102600000,  -0.00360,
,,,0.002102800000,  -0.00280,
,,,0.002103000000,  -0.00280,
,,,0.002103200000,  -0.00240,
,,,0.002103400000,  -0.00320,
,,,0.002103600000,  -0.00360,
,,,0.002103800000,  -0.00320,
,,,0.002104000000,  -0.00360,
,,,0.002104200000,  -0.00400,
,,,0.002104400000,  -0.00480,
,,,0.002104600000,  -0.00440,
,,,0.002104800000,  -0.00480,
,,,0.002105000000,  -0.00520,
,,,0.002105200000,  -0.00440,
,,,0.002105400000,  -0.00520,
,,,0.002105600000,  -0.00560,
,,,0.002105800000,  -0.00440,
,,,0.002106000000,  -0.00560,
,,,0.002106200000,  -0.00520,
,,,0.002106400000,  -0.00480,
,,,0.002106600000,  -0.00560,
,,,0.002106800000,  -0.00480,
,,,0.002107000000,  -0.00520,
,,,0.002107200000,  -0.00480,
,,,0.002107400000,  -0.00440,
,,,0.002107600000,  -0.00440,
,,,0.002107800000,  -0.00480,
,,,0.002108000000,  -0.00440,
,,,0.002108200000,  -0.00400,
,,,0.002108400000,  -0.00360,
,,,0.002108600000,  -0.00360,
,,,0.002108800000,  -0.00320,
,,,0.002109000000,  -0.00360,
,,,0.002109200000,  -0.00320,
,,,0.002109400000,  -0.00360,
,,,0.002109600000,  -0.00200,
,,,0.002109800000,  -0.00080,
,,,0.002110000000,  -0.00120,
,,,0.002110200000,   0.00000,
,,,0.002110400000,  -0.00160,
,,,0.002110600000,  -0.00040,
,,,0.002110800000,   0.00000,
,,,0.002111000000,  -0.00040,
,,,0.002111200000,   0.00040,
,,,0.002111400000,   0.00080,
,,,0.002111600000,   0.00080,
,,,0.002111800000,   0.00200,
,,,0.002112000000,   0.00160,
,,,0.002112200000,   0.00240,
,,,0.002112400000,   0.00240,
,,,0.002112600000,   0.00240,
,,,0.002112800000,   0.00360,
,,,0.002113000000,   0.00320,
,,,0.002113200000,   0.00320,
,,,0.002113400000,   0.00320,
,,,0.002113600000,   0.00360,
,,,0.002113800000,   0.00400,
,,,0.002114000000,   0.00400,
,,,0.002114200000,   0.00400,
,,,0.002114400000,   0.00360,
,,,0.002114600000,   0.00400,
,,,0.002114800000,   0.00360,
,,,0.002115000000,   0.00400,
,,,0.002115200000,   0.00400,
,,,0.002115400000,   0.00440,
,,,0.002115600000,   0.00440,
,,,0.002115800000,   0.00360,
,,,0.002116000000,   0.00280,
,,,0.002116200000,   0.00360,
,,,0.002116400000,   0.00320,
,,,0.002116600000,   0.00240,
,,,0.002116800000,   0.00320,
,,,0.002117000000,   0.00200,
,,,0.002117200000,   0.00240,
,,,0.002117400000,   0.00160,
,,,0.002117600000,   0.00080,
,,,0.002117800000,   0.00120,
,,,0.002118000000,   0.00000,
,,,0.002118200000,   0.00080,
,,,0.002118400000,   0.00000,
,,,0.002118600000,  -0.00120,
,,,0.002118800000,  -0.00040,
,,,0.002119000000,  -0.00120,
,,,0.002119200000,  -0.00120,
,,,0.002119400000,  -0.00160,
,,,0.002119600000,  -0.00200,
,,,0.002119800000,  -0.00280,
,,,0.002120000000,  -0.00320,
,,,0.002120200000,  -0.00280,
,,,0.002120400000,  -0.00400,
,,,0.002120600000,  -0.00400,
,,,0.002120800000,  -0.00400,
,,,0.002121000000,  -0.00520,
,,,0.002121200000,  -0.00480,
,,,0.002121400000,  -0.00560,
,,,0.002121600000,  -0.00520,
,,,0.002121800000,  -0.00520,
,,,0.002122000000,  -0.00560,
,,,0.002122200000,  -0.00560,
,,,0.002122400000,  -0.00640,
,,,0.002122600000,  -0.00680,
,,,0.002122800000,  -0.00560,
,,,0.002123000000,  -0.00680,
,,,0.002123200000,  -0.00600,
,,,0.002123400000,  -0.00640,
,,,0.002123600000,  -0.00600,
,,,0.002123800000,  -0.00640,
,,,0.002124000000,  -0.00600,
,,,0.002124200000,  -0.00600,
,,,0.002124400000,  -0.00560,
,,,0.002124600000,  -0.00560,
,,,0.002124800000,  -0.00480,
,,,0.002125000000,  -0.00480,
,,,0.002125200000,  -0.00440,
,,,0.002125400000,  -0.00480,
,,,0.002125600000,  -0.00400,
,,,0.002125800000,  -0.00400,
,,,0.002126000000,  -0.00440,
,,,0.002126200000,  -0.00240,
,,,0.002126400000,  -0.00240,
,,,0.002126600000,  -0.00200,
,,,0.002126800000,  -0.00120,
,,,0.002127000000,  -0.00160,
,,,0.002127200000,  -0.00040,
,,,0.002127400000,  -0.00080,
,,,0.002127600000,  -0.00080,
,,,0.002127800000,   0.00000,
,,,0.002128000000,   0.00000,
,,,0.002128200000,   0.00080,
,,,0.002128400000,   0.00080,
,,,0.002128600000,   0.00160,
,,,0.002128800000,   0.00280,
,,,0.002129000000,   0.00160,
,,,0.002129200000,   0.00240,
,,,0.002129400000,   0.00320,
,,,0.002129600000,   0.00400,
,,,0.002129800000,   0.00440,
,,,0.002130000000,   0.00360,
,,,0.002130200000,   0.00440,
,,,0.002130400000,   0.00400,
,,,0.002130600000,   0.00440,
,,,0.002130800000,   0.00440,
,,,0.002131000000,   0.00480,
,,,0.002131200000,   0.00480,
,,,0.002131400000,   0.00560,
,,,0.002131600000,   0.00480,
,,,0.002131800000,   0.00480,
,,,0.002132000000,   0.00520,
,,,0.002132200000,   0.00440,
,,,0.002132400000,   0.00480,
,,,0.002132600000,   0.00440,
,,,0.002132800000,   0.00440,
,,,0.002133000000,   0.00360,
,,,0.002133200000,   0.00440,
,,,0.002133400000,   0.00400,
,,,0.002133600000,   0.00360,
,,,0.002133800000,   0.00360,
,,,0.002134000000,   0.00280,
,,,0.002134200000,   0.00280,
,,,0.002134400000,   0.00200,
,,,0.002134600000,   0.00240,
,,,0.002134800000,   0.00200,
,,,0.002135000000,   0.00160,
,,,0.002135200000,   0.00080,
,,,0.002135400000,   0.00000,
,,,0.002135600000,   0.00000,
,,,0.002135800000,  -0.00080,
,,,0.002136000000,  -0.00040,
,,,0.002136200000,  -0.00120,
,,,0.002136400000,  -0.00240,
,,,0.002136600000,  -0.00240,
,,,0.002136800000,  -0.00200,
,,,0.002137000000,  -0.00360,
,,,0.002137200000,  -0.00320,
,,,0.002137400000,  -0.00440,
,,,0.002137600000,  -0.00360,
,,,0.002137800000,  -0.00440,
,,,0.002138000000,  -0.00560,
,,,0.002138200000,  -0.00520,
,,,0.002138400000,  -0.00600,
,,,0.002138600000,  -0.00560,
,,,0.002138800000,  -0.00640,
,,,0.002139000000,  -0.00760,
,,,0.002139200000,  -0.00680,
,,,0.002139400000,  -0.00720,
,,,0.002139600000,  -0.00560,
,,,0.002139800000,  -0.00680,
,,,0.002140000000,  -0.00680,
,,,0.002140200000,  -0.00600,
,,,0.002140400000,  -0.00600,
,,,0.002140600000,  -0.00640,
,,,0.002140800000,  -0.00640,
,,,0.002141000000,  -0.00560,
,,,0.002141200000,  -0.00520,
,,,0.002141400000,  -0.00560,
,,,0.002141600000,  -0.00600,
,,,0.002141800000,  -0.00480,
,,,0.002142000000,  -0.00560,
,,,0.002142200000,  -0.00520,
,,,0.002142400000,  -0.00520,
,,,0.002142600000,  -0.00400,
,,,0.002142800000,  -0.00440,
,,,0.002143000000,  -0.00440,
,,,0.002143200000,  -0.00320,
,,,0.002143400000,  -0.00320,
,,,0.002143600000,  -0.00240,
,,,0.002143800000,  -0.00200,
,,,0.002144000000,  -0.00200,
,,,0.002144200000,  -0.00160,
,,,0.002144400000,  -0.00160,
,,,0.002144600000,  -0.00040,
,,,0.002144800000,   0.00000,
,,,0.002145000000,   0.00040,
,,,0.002145200000,   0.00120,
,,,0.002145400000,   0.00040,
,,,0.002145600000,   0.00120,
,,,0.002145800000,   0.00160,
,,,0.002146000000,   0.00160,
,,,0.002146200000,   0.00280,
,,,0.002146400000,   0.00240,
,,,0.002146600000,   0.00400,
,,,0.002146800000,   0.00440,
,,,0.002147000000,   0.00360,
,,,0.002147200000,   0.00400,
,,,0.002147400000,   0.00400,
,,,0.002147600000,   0.00480,
,,,0.002147800000,   0.00440,
,,,0.002148000000,   0.00440,
,,,0.002148200000,   0.00520,
,,,0.002148400000,   0.00560,
,,,0.002148600000,   0.00560,
,,,0.002148800000,   0.00480,
,,,0.002149000000,   0.00400,
,,,0.002149200000,   0.00600,
,,,0.002149400000,   0.00520,
,,,0.002149600000,   0.00520,
,,,0.002149800000,   0.00480,
,,,0.002150000000,   0.00440,
,,,0.002150200000,   0.00480,
,,,0.002150400000,   0.00360,
,,,0.002150600000,   0.00360,
,,,0.002150800000,   0.00400,
,,,0.002151000000,   0.00280,
,,,0.002151200000,   0.00320,
,,,0.002151400000,   0.00320,
,,,0.002151600000,   0.00240,
,,,0.002151800000,   0.00200,
,,,0.002152000000,   0.00200,
,,,0.002152200000,   0.00080,
,,,0.002152400000,   0.00000,
,,,0.002152600000,   0.00000,
,,,0.002152800000,  -0.00080,
,,,0.002153000000,  -0.00160,
,,,0.002153200000,  -0.00160,
,,,0.002153400000,  -0.00200,
,,,0.002153600000,  -0.00240,
,,,0.002153800000,  -0.00320,
,,,0.002154000000,  -0.00320,
,,,0.002154200000,  -0.00320,
,,,0.002154400000,  -0.00400,
,,,0.002154600000,  -0.00400,
,,,0.002154800000,  -0.00400,
,,,0.002155000000,  -0.00560,
,,,0.002155200000,  -0.00440,
,,,0.002155400000,  -0.00560,
,,,0.002155600000,  -0.00600,
,,,0.002155800000,  -0.00600,
,,,0.002156000000,  -0.00600,
,,,0.002156200000,  -0.00560,
,,,0.002156400000,  -0.00600,
,,,0.002156600000,  -0.00680,
,,,0.002156800000,  -0.00640,
,,,0.002157000000,  -0.00720,
,,,0.002157200000,  -0.00640,
,,,0.002157400000,  -0.00680,
,,,0.002157600000,  -0.00680,
,,,0.002157800000,  -0.00600,
,,,0.002158000000,  -0.00600,
,,,0.002158200000,  -0.00600,
,,,0.002158400000,  -0.00600,
,,,0.002158600000,  -0.00600,
,,,0.002158800000,  -0.00520,
,,,0.002159000000,  -0.00520,
,,,0.002159200000,  -0.00440,
,,,0.002159400000,  -0.00440,
,,,0.002159600000,  -0.00440,
,,,0.002159800000,  -0.00440,
,,,0.002160000000,  -0.00440,
,,,0.002160200000,  -0.00320,
,,,0.002160400000,  -0.00400,
,,,0.002160600000,  -0.00280,
,,,0.002160800000,  -0.00240,
,,,0.002161000000,  -0.00240,
,,,0.002161200000,  -0.00120,
,,,0.002161400000,  -0.00040,
,,,0.002161600000,  -0.00040,
,,,0.002161800000,   0.00000,
,,,0.002162000000,   0.00040,
,,,0.002162200000,   0.00120,
,,,0.002162400000,   0.00120,
,,,0.002162600000,   0.00240,
,,,0.002162800000,   0.00240,
,,,0.002163000000,   0.00240,
,,,0.002163200000,   0.00320,
,,,0.002163400000,   0.00280,
,,,0.002163600000,   0.00360,
,,,0.002163800000,   0.00320,
,,,0.002164000000,   0.00360,
,,,0.002164200000,   0.00520,
,,,0.002164400000,   0.00440,
,,,0.002164600000,   0.00480,
,,,0.002164800000,   0.00520,
,,,0.002165000000,   0.00520,
,,,0.002165200000,   0.00480,
,,,0.002165400000,   0.00440,
,,,0.002165600000,   0.00520,
,,,0.002165800000,   0.00480,
,,,0.002166000000,   0.00480,
,,,0.002166200000,   0.00560,
,,,0.002166400000,   0.00480,
,,,0.002166600000,   0.00440,
,,,0.002166800000,   0.00480,
,,,0.002167000000,   0.00480,
,,,0.002167200000,   0.00400,
,,,0.002167400000,   0.00360,
,,,0.002167600000,   0.00280,
,,,0.002167800000,   0.00320,
,,,0.002168000000,   0.00320,
,,,0.002168200000,   0.00280,
,,,0.002168400000,   0.00200,
,,,0.002168600000,   0.00120,
,,,0.002168800000,   0.00080,
,,,0.002169000000,   0.00040,
,,,0.002169200000,   0.00120,
,,,0.002169400000,   0.00040,
,,,0.002169600000,   0.00000,
,,,0.002169800000,  -0.00040,
,,,0.002170000000,  -0.00160,
,,,0.002170200000,  -0.00160,
,,,0.002170400000,  -0.00240,
,,,0.002170600000,  -0.00200,
,,,0.002170800000,  -0.00240,
,,,0.002171000000,  -0.00360,
,,,0.002171200000,  -0.00240,
,,,0.002171400000,  -0.00360,
,,,0.002171600000,  -0.00400,
,,,0.002171800000,  -0.00400,
,,,0.002172000000,  -0.00480,
,,,0.002172200000,  -0.00560,
,,,0.002172400000,  -0.00520,
,,,0.002172600000,  -0.00560,
,,,0.002172800000,  -0.00560,
,,,0.002173000000,  -0.00600,
,,,0.002173200000,  -0.00560,
,,,0.002173400000,  -0.00640,
,,,0.002173600000,  -0.00720,
,,,0.002173800000,  -0.00720,
,,,0.002174000000,  -0.00640,
,,,0.002174200000,  -0.00600,
,,,0.002174400000,  -0.00760,
,,,0.002174600000,  -0.00680,
,,,0.002174800000,  -0.00720,
,,,0.002175000000,  -0.00640,
,,,0.002175200000,  -0.00600,
,,,0.002175400000,  -0.00640,
,,,0.002175600000,  -0.00600,
,,,0.002175800000,  -0.00480,
,,,0.002176000000,  -0.00600,
,,,0.002176200000,  -0.00480,
,,,0.002176400000,  -0.00480,
,,,0.002176600000,  -0.00360,
,,,0.002176800000,  -0.00480,
,,,0.002177000000,  -0.00440,
,,,0.002177200000,  -0.00280,
,,,0.002177400000,  -0.00280,
,,,0.002177600000,  -0.00280,
,,,0.002177800000,  -0.00200,
,,,0.002178000000,  -0.00120,
,,,0.002178200000,  -0.00080,
,,,0.002178400000,  -0.00040,
,,,0.002178600000,   0.00040,
,,,0.002178800000,   0.00000,
,,,0.002179000000,   0.00120,
,,,0.002179200000,   0.00120,
,,,0.002179400000,   0.00120,
,,,0.002179600000,   0.00160,
,,,0.002179800000,   0.00200,
,,,0.002180000000,   0.00160,
,,,0.002180200000,   0.00200,
,,,0.002180400000,   0.00240,
,,,0.002180600000,   0.00280,
,,,0.002180800000,   0.00400,
,,,0.002181000000,   0.00360,
,,,0.002181200000,   0.00480,
,,,0.002181400000,   0.00400,
,,,0.002181600000,   0.00480,
,,,0.002181800000,   0.00480,
,,,0.002182000000,   0.00480,
,,,0.002182200000,   0.00480,
,,,0.002182400000,   0.00440,
,,,0.002182600000,   0.00440,
,,,0.002182800000,   0.00440,
,,,0.002183000000,   0.00400,
,,,0.002183200000,   0.00400,
,,,0.002183400000,   0.00280,
,,,0.002183600000,   0.00320,
,,,0.002183800000,   0.00440,
,,,0.002184000000,   0.00320,
,,,0.002184200000,   0.00320,
,,,0.002184400000,   0.00320,
,,,0.002184600000,   0.00320,
,,,0.002184800000,   0.00280,
,,,0.002185000000,   0.00280,
,,,0.002185200000,   0.00200,
,,,0.002185400000,   0.00160,
,,,0.002185600000,   0.00120,
,,,0.002185800000,   0.00080,
,,,0.002186000000,   0.00040,
,,,0.002186200000,   0.00080,
,,,0.002186400000,  -0.00040,
,,,0.002186600000,  -0.00120,
,,,0.002186800000,  -0.00040,
,,,0.002187000000,  -0.00200,
,,,0.002187200000,  -0.00120,
,,,0.002187400000,  -0.00240,
,,,0.002187600000,  -0.00200,
,,,0.002187800000,  -0.00240,
,,,0.002188000000,  -0.00360,
,,,0.002188200000,  -0.00320,
,,,0.002188400000,  -0.00480,
,,,0.002188600000,  -0.00520,
,,,0.002188800000,  -0.00480,
,,,0.002189000000,  -0.00440,
,,,0.002189200000,  -0.00480,
,,,0.002189400000,  -0.00520,
,,,0.002189600000,  -0.00520,
,,,0.002189800000,  -0.00640,
,,,0.002190000000,  -0.00600,
,,,0.002190200000,  -0.00600,
,,,0.002190400000,  -0.00600,
,,,0.002190600000,  -0.00640,
,,,0.002190800000,  -0.00560,
,,,0.002191000000,  -0.00600,
,,,0.002191200000,  -0.00520,
,,,0.002191400000,  -0.00640,
,,,0.002191600000,  -0.00520,
,,,0.002191800000,  -0.00520,
,,,0.002192000000,  -0.00600,
,,,0.002192200000,  -0.00520,
,,,0.002192400000,  -0.00520,
,,,0.002192600000,  -0.00480,
,,,0.002192800000,  -0.00480,
,,,0.002193000000,  -0.00480,
,,,0.002193200000,  -0.00400,
,,,0.002193400000,  -0.00480,
,,,0.002193600000,  -0.00400,
,,,0.002193800000,  -0.00240,
,,,0.002194000000,  -0.00320,
,,,0.002194200000,  -0.00200,
,,,0.002194400000,  -0.00240,
,,,0.002194600000,  -0.00160,
,,,0.002194800000,  -0.00080,
,,,0.002195000000,   0.00000,
,,,0.002195200000,  -0.00080,
,,,0.002195400000,   0.00040,
,,,0.002195600000,   0.00040,
,,,0.002195800000,   0.00000,
,,,0.002196000000,   0.00080,
,,,0.002196200000,   0.00200,
,,,0.002196400000,   0.00160,
,,,0.002196600000,   0.00160,
,,,0.002196800000,   0.00200,
,,,0.002197000000,   0.00320,
,,,0.002197200000,   0.00280,
,,,0.002197400000,   0.00200,
,,,0.002197600000,   0.00320,
,,,0.002197800000,   0.00400,
,,,0.002198000000,   0.00320,
,,,0.002198200000,   0.00400,
,,,0.002198400000,   0.00360,
,,,0.002198600000,   0.00400,
,,,0.002198800000,   0.00440,
,,,0.002199000000,   0.00400,
,,,0.002199200000,   0.00440,
,,,0.002199400000,   0.00400,
,,,0.002199600000,   0.00440,
,,,0.002199800000,   0.00520,
,,,0.002200000000,   0.00440,
,,,0.002200200000,   0.00400,
,,,0.002200400000,   0.00400,
,,,0.002200600000,   0.00360,
,,,0.002200800000,   0.00400,
,,,0.002201000000,   0.00320,
,,,0.002201200000,   0.00360,
,,,0.002201400000,   0.00280,
,,,0.002201600000,   0.00240,
,,,0.002201800000,   0.00160,
,,,0.002202000000,   0.00200,
,,,0.002202200000,   0.00200,
,,,0.002202400000,   0.00120,
,,,0.002202600000,   0.00080,
,,,0.002202800000,   0.00040,
,,,0.002203000000,  -0.00040,
,,,0.002203200000,   0.00040,
,,,0.002203400000,  -0.00160,
,,,0.002203600000,  -0.00080,
,,,0.002203800000,  -0.00080,
,,,0.002204000000,  -0.00160,
,,,0.002204200000,  -0.00160,
,,,0.002204400000,  -0.00200,
,,,0.002204600000,  -0.00280,
,,,0.002204800000,  -0.00320,
,,,0.002205000000,  -0.00400,
,,,0.002205200000,  -0.00320,
,,,0.002205400000,  -0.00400,
,,,0.002205600000,  -0.00320,
,,,0.002205800000,  -0.00360,
,,,0.002206000000,  -0.00520,
,,,0.002206200000,  -0.00440,
,,,0.002206400000,  -0.00520,
,,,0.002206600000,  -0.00480,
,,,0.002206800000,  -0.00600,
,,,0.002207000000,  -0.00520,
,,,0.002207200000,  -0.00520,
,,,0.002207400000,  -0.00560,
,,,0.002207600000,  -0.00560,
,,,0.002207800000,  -0.00520,
,,,0.002208000000,  -0.00560,
,,,0.002208200000,  -0.00600,
,,,0.002208400000,  -0.00560,
,,,0.002208600000,  -0.00520,
,,,0.002208800000,  -0.00440,
,,,0.002209000000,  -0.00560,
,,,0.002209200000,  -0.00440,
,,,0.002209400000,  -0.00480,
,,,0.002209600000,  -0.00400,
,,,0.002209800000,  -0.00480,
,,,0.002210000000,  -0.00360,
,,,0.002210200000,  -0.00360,
,,,0.002210400000,  -0.00320,
,,,0.002210600000,  -0.00280,
,,,0.002210800000,  -0.00240,
,,,0.002211000000,  -0.00280,
,,,0.002211200000,  -0.00120,
,,,0.002211400000,  -0.00160,
,,,0.002211600000,  -0.00080,
,,,0.002211800000,  -0.00080,
,,,0.002212000000,   0.00000,
,,,0.002212200000,   0.00040,
,,,0.002212400000,  -0.00080,
,,,0.002212600000,   0.00080,
,,,0.002212800000,   0.00040,
,,,0.002213000000,   0.00080,
,,,0.002213200000,   0.00080,
,,,0.002213400000,   0.00080,
,,,0.002213600000,   0.00240,
,,,0.002213800000,   0.00120,
,,,0.002214000000,   0.00240,
,,,0.002214200000,   0.00280,
,,,0.002214400000,   0.00320,
,,,0.002214600000,   0.00360,
,,,0.002214800000,   0.00240,
,,,0.002215000000,   0.00360,
,,,0.002215200000,   0.00360,
,,,0.002215400000,   0.00360,
,,,0.002215600000,   0.00480,
,,,0.002215800000,   0.00360,
,,,0.002216000000,   0.00440,
,,,0.002216200000,   0.00400,
,,,0.002216400000,   0.00360,
,,,0.002216600000,   0.00320,
,,,0.002216800000,   0.00360,
,,,0.002217000000,   0.00400,
,,,0.002217200000,   0.00360,
,,,0.002217400000,   0.00280,
,,,0.002217600000,   0.00360,
,,,0.002217800000,   0.00320,
,,,0.002218000000,   0.00280,
,,,0.002218200000,   0.00240,
,,,0.002218400000,   0.00280,
,,,0.002218600000,   0.00280,
,,,0.002218800000,   0.00160,
,,,0.002219000000,   0.00200,
,,,0.002219200000,   0.00080,
,,,0.002219400000,   0.00000,
,,,0.002219600000,   0.00040,
,,,0.002219800000,   0.00040,
,,,0.002220000000,   0.00000,
,,,0.002220200000,   0.00000,
,,,0.002220400000,  -0.00120,
,,,0.002220600000,  -0.00120,
,,,0.002220800000,  -0.00160,
,,,0.002221000000,  -0.00240,
,,,0.002221200000,  -0.00200,
,,,0.002221400000,  -0.00320,
,,,0.002221600000,  -0.00320,
,,,0.002221800000,  -0.00280,
,,,0.002222000000,  -0.00400,
,,,0.002222200000,  -0.00400,
,,,0.002222400000,  -0.00320,
,,,0.002222600000,  -0.00360,
,,,0.002222800000,  -0.00440,
,,,0.002223000000,  -0.00440,
,,,0.002223200000,  -0.00560,
,,,0.002223400000,  -0.00480,
,,,0.002223600000,  -0.00480,
,,,0.002223800000,  -0.00520,
,,,0.002224000000,  -0.00520,
,,,0.002224200000,  -0.00480,
,,,0.002224400000,  -0.00600,
,,,0.002224600000,  -0.00480,
,,,0.002224800000,  -0.00560,
,,,0.002225000000,  -0.00560,
,,,0.002225200000,  -0.00480,
,,,0.002225400000,  -0.00560,
,,,0.002225600000,  -0.00440,
,,,0.002225800000,  -0.00400,
,,,0.002226000000,  -0.00440,
,,,0.002226200000,  -0.00400,
,,,0.002226400000,  -0.00400,
,,,0.002226600000,  -0.00400,
,,,0.002226800000,  -0.00400,
,,,0.002227000000,  -0.00440,
,,,0.002227200000,  -0.00280,
,,,0.002227400000,  -0.00240,
,,,0.002227600000,  -0.00240,
,,,0.002227800000,  -0.00240,
,,,0.002228000000,  -0.00240,
,,,0.002228200000,  -0.00240,
,,,0.002228400000,  -0.00200,
,,,0.002228600000,  -0.00040,
,,,0.002228800000,  -0.00040,
,,,0.002229000000,   0.00040,
,,,0.002229200000,   0.00080,
,,,0.002229400000,  -0.00040,
,,,0.002229600000,   0.00080,
,,,0.002229800000,   0.00120,
,,,0.002230000000,   0.00200,
,,,0.002230200000,   0.00240,
,,,0.002230400000,   0.00200,
,,,0.002230600000,   0.00200,
,,,0.002230800000,   0.00240,
,,,0.002231000000,   0.00240,
,,,0.002231200000,   0.00320,
,,,0.002231400000,   0.00240,
,,,0.002231600000,   0.00280,
,,,0.002231800000,   0.00320,
,,,0.002232000000,   0.00280,
,,,0.002232200000,   0.00400,
,,,0.002232400000,   0.00360,
,,,0.002232600000,   0.00360,
,,,0.002232800000,   0.00440,
,,,0.002233000000,   0.00360,
,,,0.002233200000,   0.00360,
,,,0.002233400000,   0.00320,
,,,0.002233600000,   0.00360,
,,,0.002233800000,   0.00400,
,,,0.002234000000,   0.00320,
,,,0.002234200000,   0.00280,
,,,0.002234400000,   0.00280,
,,,0.002234600000,   0.00320,
,,,0.002234800000,   0.00200,
,,,0.002235000000,   0.00280,
,,,0.002235200000,   0.00280,
,,,0.002235400000,   0.00160,
,,,0.002235600000,   0.00240,
,,,0.002235800000,   0.00160,
,,,0.002236000000,   0.00160,
,,,0.002236200000,   0.00120,
,,,0.002236400000,   0.00000,
,,,0.002236600000,   0.00080,
,,,0.002236800000,   0.00040,
,,,0.002237000000,   0.00000,
,,,0.002237200000,   0.00040,
,,,0.002237400000,  -0.00160,
,,,0.002237600000,  -0.00040,
,,,0.002237800000,  -0.00120,
,,,0.002238000000,  -0.00200,
,,,0.002238200000,  -0.00120,
,,,0.002238400000,  -0.00200,
,,,0.002238600000,  -0.00240,
,,,0.002238800000,  -0.00320,
,,,0.002239000000,  -0.00280,
,,,0.002239200000,  -0.00280,
,,,0.002239400000,  -0.00360,
,,,0.002239600000,  -0.00320,
,,,0.002239800000,  -0.00400,
,,,0.002240000000,  -0.00440,
,,,0.002240200000,  -0.00320,
,,,0.002240400000,  -0.00440,
,,,0.002240600000,  -0.00400,
,,,0.002240800000,  -0.00440,
,,,0.002241000000,  -0.00400,
,,,0.002241200000,  -0.00400,
,,,0.002241400000,  -0.00520,
,,,0.002241600000,  -0.00480,
,,,0.002241800000,  -0.00480,
,,,0.002242000000,  -0.00480,
,,,0.002242200000,  -0.00480,
,,,0.002242400000,  -0.00480,
,,,0.002242600000,  -0.00400,
,,,0.002242800000,  -0.00480,
,,,0.002243000000,  -0.00480,
,,,0.002243200000,  -0.00360,
,,,0.002243400000,  -0.00360,
,,,0.002243600000,  -0.00320,
,,,0.002243800000,  -0.00320,
,,,0.002244000000,  -0.00320,
,,,0.002244200000,  -0.00320,
,,,0.002244400000,  -0.00240,
,,,0.002244600000,  -0.00360,
,,,0.002244800000,  -0.00240,
,,,0.002245000000,  -0.00200,
,,,0.002245200000,  -0.00120,
,,,0.002245400000,  -0.00160,
,,,0.002245600000,  -0.00080,
,,,0.002245800000,  -0.00080,
,,,0.002246000000,  -0.00080,
,,,0.002246200000,   0.00000,
,,,0.002246400000,  -0.00040,
,,,0.002246600000,   0.00160,
,,,0.002246800000,   0.00080,
,,,0.002247000000,   0.00120,
,,,0.002247200000,   0.00160,
,,,0.002247400000,   0.00120,
,,,0.002247600000,   0.00160,
,,,0.002247800000,   0.00120,
,,,0.002248000000,   0.00160,
,,,0.002248200000,   0.00320,
,,,0.002248400000,   0.00280,
,,,0.002248600000,   0.00240,
,,,0.002248800000,   0.00240,
,,,0.002249000000,   0.00280,
,,,0.002249200000,   0.00320,
,,,0.002249400000,   0.00240,
,,,0.002249600000,   0.00320,
,,,0.002249800000,   0.00320,
,,,0.002250000000,   0.00320,
,,,0.002250200000,   0.00400,
,,,0.002250400000,   0.00320,
,,,0.002250600000,   0.00280,
,,,0.002250800000,   0.00320,
,,,0.002251000000,   0.00400,
,,,0.002251200000,   0.00280,
,,,0.002251400000,   0.00280,
,,,0.002251600000,   0.00360,
,,,0.002251800000,   0.00240,
,,,0.002252000000,   0.00280,
,,,0.002252200000,   0.00280,
,,,0.002252400000,   0.00200,
,,,0.002252600000,   0.00240,
,,,0.002252800000,   0.00120,
,,,0.002253000000,   0.00080,
,,,0.002253200000,   0.00200,
,,,0.002253400000,   0.00160,
,,,0.002253600000,   0.00040,
,,,0.002253800000,   0.00040,
,,,0.002254000000,   0.00000,
,,,0.002254200000,   0.00040,
,,,0.002254400000,  -0.00040,
,,,0.002254600000,  -0.00040,
,,,0.002254800000,  -0.00040,
,,,0.002255000000,  -0.00120,
,,,0.002255200000,  -0.00200,
,,,0.002255400000,  -0.00160,
,,,0.002255600000,  -0.00200,
,,,0.002255800000,  -0.00240,
,,,0.002256000000,  -0.00320,
,,,0.002256200000,  -0.00280,
,,,0.002256400000,  -0.00320,
,,,0.002256600000,  -0.00280,
,,,0.002256800000,  -0.00320,
,,,0.002257000000,  -0.00320,
,,,0.002257200000,  -0.00360,
,,,0.002257400000,  -0.00360,
,,,0.002257600000,  -0.00400,
,,,0.002257800000,  -0.00320,
,,,0.002258000000,  -0.00440,
,,,0.002258200000,  -0.00440,
,,,0.002258400000,  -0.00440,
,,,0.002258600000,  -0.00320,
,,,0.002258800000,  -0.00400,
,,,0.002259000000,  -0.00480,
,,,0.002259200000,  -0.00440,
,,,0.002259400000,  -0.00480,
,,,0.002259600000,  -0.00440,
,,,0.002259800000,  -0.00440,
,,,0.002260000000,  -0.00360,
,,,0.002260200000,  -0.00360,
,,,0.002260400000,  -0.00360,
,,,0.002260600000,  -0.00360,
,,,0.002260800000,  -0.00280,
,,,0.002261000000,  -0.00280,
,,,0.002261200000,  -0.00320,
,,,0.002261400000,  -0.00280,
,,,0.002261600000,  -0.00200,
,,,0.002261800000,  -0.00240,
,,,0.002262000000,  -0.00240,
,,,0.002262200000,  -0.00160,
,,,0.002262400000,  -0.00240,
,,,0.002262600000,  -0.00200,
,,,0.002262800000,  -0.00160,
,,,0.002263000000,  -0.00160,
,,,0.002263200000,  -0.00120,
,,,0.002263400000,  -0.00120,
,,,0.002263600000,   0.00000,
,,,0.002263800000,  -0.00040,
,,,0.002264000000,  -0.00040,
,,,0.002264200000,   0.00040,
,,,0.002264400000,   0.00120,
,,,0.002264600000,   0.00040,
,,,0.002264800000,   0.00120,
,,,0.002265000000,   0.00080,
,,,0.002265200000,   0.00120,
,,,0.002265400000,   0.00160,
,,,0.002265600000,   0.00200,
,,,0.002265800000,   0.00200,
,,,0.002266000000,   0.00240,
,,,0.002266200000,   0.00240,
,,,0.002266400000,   0.00240,
,,,0.002266600000,   0.00240,
,,,0.002266800000,   0.00240,
,,,0.002267000000,   0.00240,
,,,0.002267200000,   0.00240,
,,,0.002267400000,   0.00200,
,,,0.002267600000,   0.00240,
,,,0.002267800000,   0.00160,
,,,0.002268000000,   0.00280,
,,,0.002268200000,   0.00360,
,,,0.002268400000,   0.00240,
,,,0.002268600000,   0.00240,
,,,0.002268800000,   0.00200,
,,,0.002269000000,   0.00160,
,,,0.002269200000,   0.00200,
,,,0.002269400000,   0.00160,
,,,0.002269600000,   0.00200,
,,,0.002269800000,   0.00160,
,,,0.002270000000,   0.00120,
,,,0.002270200000,   0.00200,
,,,0.002270400000,   0.00080,
,,,0.002270600000,   0.00040,
,,,0.002270800000,   0.00080,
,,,0.002271000000,   0.00120,
,,,0.002271200000,   0.00080,
,,,0.002271400000,   0.00000,
,,,0.002271600000,   0.00040,
,,,0.002271800000,   0.00000,
,,,0.002272000000,  -0.00080,
,,,0.002272200000,  -0.00040,
,,,0.002272400000,  -0.00080,
,,,0.002272600000,  -0.00120,
,,,0.002272800000,  -0.00160,
,,,0.002273000000,  -0.00160,
,,,0.002273200000,  -0.00120,
,,,0.002273400000,  -0.00160,
,,,0.002273600000,  -0.00160,
,,,0.002273800000,  -0.00160,
,,,0.002274000000,  -0.00160,
,,,0.002274200000,  -0.00160,
,,,0.002274400000,  -0.00320,
,,,0.002274600000,  -0.00240,
,,,0.002274800000,  -0.00280,
,,,0.002275000000,  -0.00240,
,,,0.002275200000,  -0.00200,
,,,0.002275400000,  -0.00280,
,,,0.002275600000,  -0.00280,
,,,0.002275800000,  -0.00320,
,,,0.002276000000,  -0.00320,
,,,0.002276200000,  -0.00280,
,,,0.002276400000,  -0.00280,
,,,0.002276600000,  -0.00320,
,,,0.002276800000,  -0.00360,
,,,0.002277000000,  -0.00360,
,,,0.002277200000,  -0.00240,
,,,0.002277400000,  -0.00400,
,,,0.002277600000,  -0.00320,
,,,0.002277800000,  -0.00240,
,,,0.002278000000,  -0.00320,
,,,0.002278200000,  -0.00240,
,,,0.002278400000,  -0.00320,
,,,0.002278600000,  -0.00240,
,,,0.002278800000,  -0.00240,
,,,0.002279000000,  -0.00200,
,,,0.002279200000,  -0.00200,
,,,0.002279400000,  -0.00320,
,,,0.002279600000,  -0.00200,
,,,0.002279800000,  -0.00120,
,,,0.002280000000,  -0.00120,
,,,0.002280200000,  -0.00120,
,,,0.002280400000,  -0.00120,
,,,0.002280600000,  -0.00120,
,,,0.002280800000,  -0.00120,
,,,0.002281000000,  -0.00120,
,,,0.002281200000,   0.00000,
,,,0.002281400000,  -0.00080,
,,,0.002281600000,  -0.00120,
,,,0.002281800000,  -0.00040,
,,,0.002282000000,  -0.00120,
,,,0.002282200000,   0.00000,
,,,0.002282400000,  -0.00040,
,,,0.002282600000,   0.00000,
,,,0.002282800000,   0.00000,
,,,0.002283000000,   0.00000,
,,,0.002283200000,   0.00120,
,,,0.002283400000,  -0.00040,
,,,0.002283600000,   0.00080,
,,,0.002283800000,   0.00040,
,,,0.002284000000,   0.00080,
,,,0.002284200000,   0.00160,
,,,0.002284400000,   0.00080,
,,,0.002284600000,   0.00120,
,,,0.002284800000,   0.00120,
,,,0.002285000000,   0.00080,
,,,0.002285200000,   0.00120,
,,,0.002285400000,   0.00080,
,,,0.002285600000,   0.00080,
,,,0.002285800000,   0.00120,
,,,0.002286000000,   0.00040,
,,,0.002286200000,   0.00120,
,,,0.002286400000,   0.00040,
,,,0.002286600000,   0.00120,
,,,0.002286800000,   0.00160,
,,,0.002287000000,   0.00200,
,,,0.002287200000,   0.00200,
,,,0.002287400000,   0.00040,
,,,0.002287600000,   0.00040,
,,,0.002287800000,   0.00080,
,,,0.002288000000,   0.00080,
,,,0.002288200000,   0.00080,
,,,0.002288400000,   0.00080,
,,,0.002288600000,   0.00080,
,,,0.002288800000,   0.00040,
,,,0.002289000000,   0.00080,
,,,0.002289200000,   0.00080,
,,,0.002289400000,  -0.00040,
,,,0.002289600000,   0.00080,
,,,0.002289800000,   0.00040,
,,,0.002290000000,  -0.00040,
,,,0.002290200000,   0.00040,
,,,0.002290400000,   0.00000,
,,,0.002290600000,   0.00000,
,,,0.002290800000,   0.00040,
,,,0.002291000000,  -0.00040,
,,,0.002291200000,   0.00040,
,,,0.002291400000,   0.00000,
,,,0.002291600000,  -0.00040,
,,,0.002291800000,  -0.00040,
,,,0.002292000000,  -0.00120,
,,,0.002292200000,  -0.00080,
,,,0.002292400000,  -0.00160,
,,,0.002292600000,  -0.00160,
,,,0.002292800000,  -0.00040,
,,,0.002293000000,  -0.00200,
,,,0.002293200000,  -0.00040,
,,,0.002293400000,  -0.00080,
,,,0.002293600000,  -0.00080,
,,,0.002293800000,  -0.00040,
,,,0.002294000000,  -0.00120,
,,,0.002294200000,  -0.00080,
,,,0.002294400000,  -0.00160,
,,,0.002294600000,  -0.00080,
,,,0.002294800000,  -0.00240,
,,,0.002295000000,  -0.00080,
,,,0.002295200000,  -0.00160,
,,,0.002295400000,  -0.00160,
,,,0.002295600000,  -0.00080,
,,,0.002295800000,  -0.00240,
,,,0.002296000000,  -0.00240,
,,,0.002296200000,  -0.00080,
,,,0.002296400000,  -0.00240,
,,,0.002296600000,  -0.00160,
,,,0.002296800000,  -0.00200,
,,,0.002297000000,  -0.00200,
,,,0.002297200000,  -0.00120,
,,,0.002297400000,  -0.00200,
,,,0.002297600000,  -0.00200,
,,,0.002297800000,  -0.00240,
,,,0.002298000000,  -0.00240,
,,,0.002298200000,  -0.00160,
,,,0.002298400000,  -0.00240,
,,,0.002298600000,  -0.00200,
,,,0.002298800000,  -0.00200,
,,,0.002299000000,  -0.00280,
,,,0.002299200000,  -0.00200,
,,,0.002299400000,  -0.00200,
,,,0.002299600000,  -0.00080,
,,,0.002299800000,  -0.00200,
,,,0.002300000000,  -0.00160,
,,,0.002300200000,  -0.00200,
,,,0.002300400000,  -0.00240,
,,,0.002300600000,  -0.00160,
,,,0.002300800000,  -0.00200,
,,,0.002301000000,  -0.00240,
,,,0.002301200000,  -0.00080,
,,,0.002301400000,  -0.00200,
,,,0.002301600000,  -0.00080,
,,,0.002301800000,  -0.00120,
,,,0.002302000000,  -0.00080,
,,,0.002302200000,  -0.00040,
,,,0.002302400000,  -0.00160,
,,,0.002302600000,  -0.00040,
,,,0.002302800000,  -0.00040,
,,,0.002303000000,   0.00000,
,,,0.002303200000,  -0.00040,
,,,0.002303400000,  -0.00040,
,,,0.002303600000,  -0.00080,
,,,0.002303800000,  -0.00040,
,,,0.002304000000,  -0.00040,
,,,0.002304200000,   0.00120,
,,,0.002304400000,   0.00040,
,,,0.002304600000,   0.00040,
,,,0.002304800000,   0.00040,
,,,0.002305000000,   0.00040,
,,,0.002305200000,   0.00120,
,,,0.002305400000,   0.00080,
,,,0.002305600000,   0.00160,
,,,0.002305800000,   0.00000,
,,,0.002306000000,   0.00080,
,,,0.002306200000,   0.00080,
,,,0.002306400000,   0.00080,
,,,0.002306600000,   0.00200,
,,,0.002306800000,   0.00160,
,,,0.002307000000,   0.00240,
,,,0.002307200000,   0.00120,
,,,0.002307400000,   0.00040,
,,,0.002307600000,   0.00240,
,,,0.002307800000,   0.00160,
,,,0.002308000000,   0.00200,
,,,0.002308200000,   0.00240,
,,,0.002308400000,   0.00200,
,,,0.002308600000,   0.00240,
,,,0.002308800000,   0.00160,
,,,0.002309000000,   0.00240,
,,,0.002309200000,   0.00240,
,,,0.002309400000,   0.00160,
,,,0.002309600000,   0.00240,
,,,0.002309800000,   0.00240,
,,,0.002310000000,   0.00200,
,,,0.002310200000,   0.00240,
,,,0.002310400000,   0.00160,
,,,0.002310600000,   0.00160,
,,,0.002310800000,   0.00200,
,,,0.002311000000,   0.00160,
,,,0.002311200000,   0.00120,
,,,0.002311400000,   0.00040,
,,,0.002311600000,   0.00120,
,,,0.002311800000,   0.00080,
,,,0.002312000000,   0.00040,
,,,0.002312200000,   0.00040,
,,,0.002312400000,  -0.00040,
,,,0.002312600000,   0.00000,
,,,0.002312800000,  -0.00040,
,,,0.002313000000,   0.00000,
,,,0.002313200000,  -0.00040,
,,,0.002313400000,  -0.00080,
,,,0.002313600000,  -0.00080,
,,,0.002313800000,  -0.00120,
,,,0.002314000000,  -0.00040,
,,,0.002314200000,  -0.00120,
,,,0.002314400000,  -0.00120,
,,,0.002314600000,  -0.00160,
,,,0.002314800000,  -0.00200,
,,,0.002315000000,  -0.00160,
,,,0.002315200000,  -0.00200,
,,,0.002315400000,  -0.00240,
,,,0.002315600000,  -0.00320,
,,,0.002315800000,  -0.00320,
,,,0.002316000000,  -0.00240,
,,,0.002316200000,  -0.00400,
,,,0.002316400000,  -0.00440,
,,,0.002316600000,  -0.00360,
,,,0.002316800000,  -0.00440,
,,,0.002317000000,  -0.00440,
,,,0.002317200000,  -0.00440,
,,,0.002317400000,  -0.00360,
,,,0.002317600000,  -0.00400,
,,,0.002317800000,  -0.00400,
,,,0.002318000000,  -0.00440,
,,,0.002318200000,  -0.00320,
,,,0.002318400000,  -0.00440,
,,,0.002318600000,  -0.00400,
,,,0.002318800000,  -0.00440,
,,,0.002319000000,  -0.00440,
,,,0.002319200000,  -0.00480,
,,,0.002319400000,  -0.00400,
,,,0.002319600000,  -0.00320,
,,,0.002319800000,  -0.00360,
,,,0.002320000000,  -0.00360,
,,,0.002320200000,  -0.00320,
,,,0.002320400000,  -0.00320,
,,,0.002320600000,  -0.00200,
,,,0.002320800000,  -0.00280,
,,,0.002321000000,  -0.00200,
,,,0.002321200000,  -0.00160,
,,,0.002321400000,  -0.00240,
,,,0.002321600000,  -0.00080,
,,,0.002321800000,  -0.00160,
,,,0.002322000000,  -0.00040,
,,,0.002322200000,  -0.00120,
,,,0.002322400000,  -0.00040,
,,,0.002322600000,   0.00040,
,,,0.002322800000,  -0.00040,
,,,0.002323000000,   0.00080,
,,,0.002323200000,   0.00160,
,,,0.002323400000,   0.00120,
,,,0.002323600000,   0.00160,
,,,0.002323800000,   0.00120,
,,,0.002324000000,   0.00240,
,,,0.002324200000,   0.00280,
,,,0.002324400000,   0.00280,
,,,0.002324600000,   0.00320,
,,,0.002324800000,   0.00360,
,,,0.002325000000,   0.00440,
,,,0.002325200000,   0.00440,
,,,0.002325400000,   0.00440,
,,,0.002325600000,   0.00440,
,,,0.002325800000,   0.00440,
,,,0.002326000000,   0.00520,
,,,0.002326200000,   0.00480,
,,,0.002326400000,   0.00480,
,,,0.002326600000,   0.00600,
,,,0.002326800000,   0.00520,
,,,0.002327000000,   0.00440,
,,,0.002327200000,   0.00440,
,,,0.002327400000,   0.00560,
,,,0.002327600000,   0.00520,
,,,0.002327800000,   0.00480,
,,,0.002328000000,   0.00480,
,,,0.002328200000,   0.00440,
,,,0.002328400000,   0.00440,
,,,0.002328600000,   0.00400,
,,,0.002328800000,   0.00440,
,,,0.002329000000,   0.00440,
,,,0.002329200000,   0.00320,
,,,0.002329400000,   0.00360,
,,,0.002329600000,   0.00320,
,,,0.002329800000,   0.00280,
,,,0.002330000000,   0.00160,
,,,0.002330200000,   0.00080,
,,,0.002330400000,   0.00120,
,,,0.002330600000,   0.00080,
,,,0.002330800000,   0.00000,
,,,0.002331000000,   0.00040,
,,,0.002331200000,  -0.00080,
,,,0.002331400000,   0.00000,
,,,0.002331600000,  -0.00120,
,,,0.002331800000,  -0.00200,
,,,0.002332000000,  -0.00200,
,,,0.002332200000,  -0.00360,
,,,0.002332400000,  -0.00320,
,,,0.002332600000,  -0.00320,
,,,0.002332800000,  -0.00400,
,,,0.002333000000,  -0.00400,
,,,0.002333200000,  -0.00440,
,,,0.002333400000,  -0.00480,
,,,0.002333600000,  -0.00520,
,,,0.002333800000,  -0.00680,
,,,0.002334000000,  -0.00600,
,,,0.002334200000,  -0.00640,
,,,0.002334400000,  -0.00720,
,,,0.002334600000,  -0.00640,
,,,0.002334800000,  -0.00760,
,,,0.002335000000,  -0.00680,
,,,0.002335200000,  -0.00800,
,,,0.002335400000,  -0.00840,
,,,0.002335600000,  -0.00720,
,,,0.002335800000,  -0.00840,
,,,0.002336000000,  -0.00760,
,,,0.002336200000,  -0.00840,
,,,0.002336400000,  -0.00800,
,,,0.002336600000,  -0.00760,
,,,0.002336800000,  -0.00880,
,,,0.002337000000,  -0.00680,
,,,0.002337200000,  -0.00720,
,,,0.002337400000,  -0.00720,
,,,0.002337600000,  -0.00600,
,,,0.002337800000,  -0.00640,
,,,0.002338000000,  -0.00560,
,,,0.002338200000,  -0.00480,
,,,0.002338400000,  -0.00480,
,,,0.002338600000,  -0.00440,
,,,0.002338800000,  -0.00480,
,,,0.002339000000,  -0.00320,
,,,0.002339200000,  -0.00320,
,,,0.002339400000,  -0.00280,
,,,0.002339600000,  -0.00120,
,,,0.002339800000,  -0.00160,
,,,0.002340000000,  -0.00040,
,,,0.002340200000,  -0.00040,
,,,0.002340400000,   0.00000,
,,,0.002340600000,   0.00200,
,,,0.002340800000,   0.00200,
,,,0.002341000000,   0.00200,
,,,0.002341200000,   0.00360,
,,,0.002341400000,   0.00400,
,,,0.002341600000,   0.00400,
,,,0.002341800000,   0.00520,
,,,0.002342000000,   0.00440,
,,,0.002342200000,   0.00600,
,,,0.002342400000,   0.00640,
,,,0.002342600000,   0.00720,
,,,0.002342800000,   0.00760,
,,,0.002343000000,   0.00720,
,,,0.002343200000,   0.00680,
,,,0.002343400000,   0.00880,
,,,0.002343600000,   0.00920,
,,,0.002343800000,   0.00880,
,,,0.002344000000,   0.00880,
,,,0.002344200000,   0.00960,
,,,0.002344400000,   0.00920,
,,,0.002344600000,   0.00920,
,,,0.002344800000,   0.00920,
,,,0.002345000000,   0.00840,
,,,0.002345200000,   0.00840,
,,,0.002345400000,   0.00840,
,,,0.002345600000,   0.00880,
,,,0.002345800000,   0.00800,
,,,0.002346000000,   0.00760,
,,,0.002346200000,   0.00720,
,,,0.002346400000,   0.00720,
,,,0.002346600000,   0.00720,
,,,0.002346800000,   0.00600,
,,,0.002347000000,   0.00560,
,,,0.002347200000,   0.00480,
,,,0.002347400000,   0.00400,
,,,0.002347600000,   0.00400,
,,,0.002347800000,   0.00320,
,,,0.002348000000,   0.00240,
,,,0.002348200000,   0.00120,
,,,0.002348400000,   0.00080,
,,,0.002348600000,   0.00040,
,,,0.002348800000,  -0.00080,
,,,0.002349000000,  -0.00120,
,,,0.002349200000,  -0.00200,
,,,0.002349400000,  -0.00200,
,,,0.002349600000,  -0.00360,
,,,0.002349800000,  -0.00520,
,,,0.002350000000,  -0.00520,
,,,0.002350200000,  -0.00560,
,,,0.002350400000,  -0.00680,
,,,0.002350600000,  -0.00760,
,,,0.002350800000,  -0.00840,
,,,0.002351000000,  -0.00880,
,,,0.002351200000,  -0.00960,
,,,0.002351400000,  -0.01040,
,,,0.002351600000,  -0.01080,
,,,0.002351800000,  -0.01160,
,,,0.002352000000,  -0.01280,
,,,0.002352200000,  -0.01240,
,,,0.002352400000,  -0.01280,
,,,0.002352600000,  -0.01200,
,,,0.002352800000,  -0.01280,
,,,0.002353000000,  -0.01240,
,,,0.002353200000,  -0.01280,
,,,0.002353400000,  -0.01320,
,,,0.002353600000,  -0.01320,
,,,0.002353800000,  -0.01320,
,,,0.002354000000,  -0.01320,
,,,0.002354200000,  -0.01320,
,,,0.002354400000,  -0.01160,
,,,0.002354600000,  -0.01200,
,,,0.002354800000,  -0.01200,
,,,0.002355000000,  -0.01080,
,,,0.002355200000,  -0.01120,
,,,0.002355400000,  -0.01040,
,,,0.002355600000,  -0.00920,
,,,0.002355800000,  -0.00920,
,,,0.002356000000,  -0.00760,
,,,0.002356200000,  -0.00840,
,,,0.002356400000,  -0.00560,
,,,0.002356600000,  -0.00560,
,,,0.002356800000,  -0.00560,
,,,0.002357000000,  -0.00320,
,,,0.002357200000,  -0.00280,
,,,0.002357400000,  -0.00200,
,,,0.002357600000,  -0.00080,
,,,0.002357800000,   0.00040,
,,,0.002358000000,   0.00120,
,,,0.002358200000,   0.00200,
,,,0.002358400000,   0.00360,
,,,0.002358600000,   0.00320,
,,,0.002358800000,   0.00480,
,,,0.002359000000,   0.00640,
,,,0.002359200000,   0.00640,
,,,0.002359400000,   0.00760,
,,,0.002359600000,   0.00880,
,,,0.002359800000,   0.00880,
,,,0.002360000000,   0.01080,
,,,0.002360200000,   0.01120,
,,,0.002360400000,   0.01240,
,,,0.002360600000,   0.01240,
,,,0.002360800000,   0.01280,
,,,0.002361000000,   0.01400,
,,,0.002361200000,   0.01320,
,,,0.002361400000,   0.01440,
,,,0.002361600000,   0.01440,
,,,0.002361800000,   0.01440,
,,,0.002362000000,   0.01440,
,,,0.002362200000,   0.01440,
,,,0.002362400000,   0.01520,
,,,0.002362600000,   0.01520,
,,,0.002362800000,   0.01440,
,,,0.002363000000,   0.01440,
,,,0.002363200000,   0.01440,
,,,0.002363400000,   0.01360,
,,,0.002363600000,   0.01280,
,,,0.002363800000,   0.01360,
,,,0.002364000000,   0.01200,
,,,0.002364200000,   0.01120,
,,,0.002364400000,   0.01040,
,,,0.002364600000,   0.01040,
,,,0.002364800000,   0.00800,
,,,0.002365000000,   0.00800,
,,,0.002365200000,   0.00600,
,,,0.002365400000,   0.00640,
,,,0.002365600000,   0.00480,
,,,0.002365800000,   0.00320,
,,,0.002366000000,   0.00280,
,,,0.002366200000,   0.00160,
,,,0.002366400000,   0.00040,
,,,0.002366600000,  -0.00160,
,,,0.002366800000,  -0.00360,
,,,0.002367000000,  -0.00440,
,,,0.002367200000,  -0.00640,
,,,0.002367400000,  -0.00560,
,,,0.002367600000,  -0.00600,
,,,0.002367800000,  -0.00840,
,,,0.002368000000,  -0.00840,
,,,0.002368200000,  -0.01000,
,,,0.002368400000,  -0.01120,
,,,0.002368600000,  -0.01200,
,,,0.002368800000,  -0.01320,
,,,0.002369000000,  -0.01320,
,,,0.002369200000,  -0.01480,
,,,0.002369400000,  -0.01600,
,,,0.002369600000,  -0.01680,
,,,0.002369800000,  -0.01600,
,,,0.002370000000,  -0.01680,
,,,0.002370200000,  -0.01760,
,,,0.002370400000,  -0.01720,
,,,0.002370600000,  -0.01880,
,,,0.002370800000,  -0.01840,
,,,0.002371000000,  -0.01880,
,,,0.002371200000,  -0.01920,
,,,0.002371400000,  -0.01880,
,,,0.002371600000,  -0.01920,
,,,0.002371800000,  -0.01960,
,,,0.002372000000,  -0.01680,
,,,0.002372200000,  -0.01760,
,,,0.002372400000,  -0.01600,
,,,0.002372600000,  -0.01560,
,,,0.002372800000,  -0.01480,
,,,0.002373000000,  -0.01440,
,,,0.002373200000,  -0.01400,
,,,0.002373400000,  -0.01360,
,,,0.002373600000,  -0.01160,
,,,0.002373800000,  -0.01080,
,,,0.002374000000,  -0.01000,
,,,0.002374200000,  -0.00880,
,,,0.002374400000,  -0.00840,
,,,0.002374600000,  -0.00600,
,,,0.002374800000,  -0.00440,
,,,0.002375000000,  -0.00320,
,,,0.002375200000,  -0.00200,
,,,0.002375400000,  -0.00080,
,,,0.002375600000,   0.00040,
,,,0.002375800000,   0.00160,
,,,0.002376000000,   0.00360,
,,,0.002376200000,   0.00440,
,,,0.002376400000,   0.00560,
,,,0.002376600000,   0.00720,
,,,0.002376800000,   0.00920,
,,,0.002377000000,   0.01080,
,,,0.002377200000,   0.01080,
,,,0.002377400000,   0.01200,
,,,0.002377600000,   0.01360,
,,,0.002377800000,   0.01400,
,,,0.002378000000,   0.01520,
,,,0.002378200000,   0.01640,
,,,0.002378400000,   0.01640,
,,,0.002378600000,   0.01800,
,,,0.002378800000,   0.01800,
,,,0.002379000000,   0.01800,
,,,0.002379200000,   0.01960,
,,,0.002379400000,   0.01880,
,,,0.002379600000,   0.01920,
,,,0.002379800000,   0.01840,
,,,0.002380000000,   0.01960,
,,,0.002380200000,   0.01960,
,,,0.002380400000,   0.01960,
,,,0.002380600000,   0.01960,
,,,0.002380800000,   0.01880,
,,,0.002381000000,   0.01800,
,,,0.002381200000,   0.01760,
,,,0.002381400000,   0.01640,
,,,0.002381600000,   0.01600,
,,,0.002381800000,   0.01440,
,,,0.002382000000,   0.01320,
,,,0.002382200000,   0.01240,
,,,0.002382400000,   0.01160,
,,,0.002382600000,   0.01080,
,,,0.002382800000,   0.00880,
,,,0.002383000000,   0.00800,
,,,0.002383200000,   0.00600,
,,,0.002383400000,   0.00480,
,,,0.002383600000,   0.00440,
,,,0.002383800000,   0.00240,
,,,0.002384000000,   0.00040,
,,,0.002384200000,   0.00040,
,,,0.002384400000,  -0.00200,
,,,0.002384600000,  -0.00320,
,,,0.002384800000,  -0.00480,
,,,0.002385000000,  -0.00680,
,,,0.002385200000,  -0.00800,
,,,0.002385400000,  -0.00960,
,,,0.002385600000,  -0.01080,
,,,0.002385800000,  -0.01160,
,,,0.002386000000,  -0.01320,
,,,0.002386200000,  -0.01440,
,,,0.002386400000,  -0.01680,
,,,0.002386600000,  -0.01760,
,,,0.002386800000,  -0.01800,
,,,0.002387000000,  -0.01800,
,,,0.002387200000,  -0.01840,
,,,0.002387400000,  -0.02040,
,,,0.002387600000,  -0.02000,
,,,0.002387800000,  -0.02080,
,,,0.002388000000,  -0.02160,
,,,0.002388200000,  -0.02240,
,,,0.002388400000,  -0.02200,
,,,0.002388600000,  -0.02160,
,,,0.002388800000,  -0.02280,
,,,0.002389000000,  -0.02160,
,,,0.002389200000,  -0.02160,
,,,0.002389400000,  -0.02160,
,,,0.002389600000,  -0.02040,
,,,0.002389800000,  -0.02120,
,,,0.002390000000,  -0.01920,
,,,0.002390200000,  -0.01880,
,,,0.002390400000,  -0.01840,
,,,0.002390600000,  -0.01760,
,,,0.002390800000,  -0.01560,
,,,0.002391000000,  -0.01400,
,,,0.002391200000,  -0.01280,
,,,0.002391400000,  -0.01240,
,,,0.002391600000,  -0.01120,
,,,0.002391800000,  -0.00920,
,,,0.002392000000,  -0.00840,
,,,0.002392200000,  -0.00600,
,,,0.002392400000,  -0.00560,
,,,0.002392600000,  -0.00360,
,,,0.002392800000,  -0.00120,
,,,0.002393000000,  -0.00040,
,,,0.002393200000,   0.00200,
,,,0.002393400000,   0.00240,
,,,0.002393600000,   0.00440,
,,,0.002393800000,   0.00600,
,,,0.002394000000,   0.00800,
,,,0.002394200000,   0.00880,
,,,0.002394400000,   0.01040,
,,,0.002394600000,   0.01200,
,,,0.002394800000,   0.01240,
,,,0.002395000000,   0.01440,
,,,0.002395200000,   0.01640,
,,,0.002395400000,   0.01600,
,,,0.002395600000,   0.01720,
,,,0.002395800000,   0.01800,
,,,0.002396000000,   0.01920,
,,,0.002396200000,   0.02000,
,,,0.002396400000,   0.02040,
,,,0.002396600000,   0.02080,
,,,0.002396800000,   0.02200,
,,,0.002397000000,   0.02200,
,,,0.002397200000,   0.02200,
,,,0.002397400000,   0.02160,
,,,0.002397600000,   0.02160,
,,,0.002397800000,   0.02120,
,,,0.002398000000,   0.02120,
,,,0.002398200000,   0.02080,
,,,0.002398400000,   0.01960,
,,,0.002398600000,   0.02000,
,,,0.002398800000,   0.01920,
,,,0.002399000000,   0.01800,
,,,0.002399200000,   0.01760,
,,,0.002399400000,   0.01560,
,,,0.002399600000,   0.01520,
,,,0.002399800000,   0.01400,
,,,0.002400000000,   0.01280,
,,,0.002400200000,   0.01160,
,,,0.002400400000,   0.00960,
,,,0.002400600000,   0.00840,
,,,0.002400800000,   0.00640,
,,,0.002401000000,   0.00560,
,,,0.002401200000,   0.00320,
,,,0.002401400000,   0.00160,
,,,0.002401600000,  -0.00040,
,,,0.002401800000,  -0.00160,
,,,0.002402000000,  -0.00320,
,,,0.002402200000,  -0.00440,
,,,0.002402400000,  -0.00680,
,,,0.002402600000,  -0.00760,
,,,0.002402800000,  -0.00960,
,,,0.002403000000,  -0.01120,
,,,0.002403200000,  -0.01240,
,,,0.002403400000,  -0.01400,
,,,0.002403600000,  -0.01480,
,,,0.002403800000,  -0.01600,
,,,0.002404000000,  -0.01800,
,,,0.002404200000,  -0.01880,
,,,0.002404400000,  -0.01920,
,,,0.002404600000,  -0.02000,
,,,0.002404800000,  -0.02280,
,,,0.002405000000,  -0.02200,
,,,0.002405200000,  -0.02240,
,,,0.002405400000,  -0.02360,
,,,0.002405600000,  -0.02280,
,,,0.002405800000,  -0.02360,
,,,0.002406000000,  -0.02360,
,,,0.002406200000,  -0.02440,
,,,0.002406400000,  -0.02520,
,,,0.002406600000,  -0.02280,
,,,0.002406800000,  -0.02280,
,,,0.002407000000,  -0.02280,
,,,0.002407200000,  -0.02200,
,,,0.002407400000,  -0.02120,
,,,0.002407600000,  -0.02040,
,,,0.002407800000,  -0.01920,
,,,0.002408000000,  -0.01920,
,,,0.002408200000,  -0.01720,
,,,0.002408400000,  -0.01600,
,,,0.002408600000,  -0.01440,
,,,0.002408800000,  -0.01280,
,,,0.002409000000,  -0.01240,
,,,0.002409200000,  -0.01040,
,,,0.002409400000,  -0.01000,
,,,0.002409600000,  -0.00680,
,,,0.002409800000,  -0.00640,
,,,0.002410000000,  -0.00480,
,,,0.002410200000,  -0.00240,
,,,0.002410400000,  -0.00080,
,,,0.002410600000,   0.00160,
,,,0.002410800000,   0.00240,
,,,0.002411000000,   0.00480,
,,,0.002411200000,   0.00560,
,,,0.002411400000,   0.00680,
,,,0.002411600000,   0.00880,
,,,0.002411800000,   0.01000,
,,,0.002412000000,   0.01080,
,,,0.002412200000,   0.01240,
,,,0.002412400000,   0.01440,
,,,0.002412600000,   0.01640,
,,,0.002412800000,   0.01640,
,,,0.002413000000,   0.01800,
,,,0.002413200000,   0.02000,
,,,0.002413400000,   0.02000,
,,,0.002413600000,   0.02120,
,,,0.002413800000,   0.02120,
,,,0.002414000000,   0.02160,
,,,0.002414200000,   0.02200,
,,,0.002414400000,   0.02160,
,,,0.002414600000,   0.02320,
,,,0.002414800000,   0.02200,
,,,0.002415000000,   0.02240,
,,,0.002415200000,   0.02280,
,,,0.002415400000,   0.02240,
,,,0.002415600000,   0.02200,
,,,0.002415800000,   0.02040,
,,,0.002416000000,   0.02080,
,,,0.002416200000,   0.01880,
,,,0.002416400000,   0.01840,
,,,0.002416600000,   0.01760,
,,,0.002416800000,   0.01680,
,,,0.002417000000,   0.01560,
,,,0.002417200000,   0.01360,
,,,0.002417400000,   0.01280,
,,,0.002417600000,   0.01120,
,,,0.002417800000,   0.01000,
,,,0.002418000000,   0.00760,
,,,0.002418200000,   0.00720,
,,,0.002418400000,   0.00480,
,,,0.002418600000,   0.00360,
,,,0.002418800000,   0.00160,
,,,0.002419000000,   0.00040,
,,,0.002419200000,  -0.00200,
,,,0.002419400000,  -0.00400,
,,,0.002419600000,  -0.00520,
,,,0.002419800000,  -0.00680,
,,,0.002420000000,  -0.00840,
,,,0.002420200000,  -0.01000,
,,,0.002420400000,  -0.01160,
,,,0.002420600000,  -0.01240,
,,,0.002420800000,  -0.01480,
,,,0.002421000000,  -0.01560,
,,,0.002421200000,  -0.01720,
,,,0.002421400000,  -0.01840,
,,,0.002421600000,  -0.01840,
,,,0.002421800000,  -0.02000,
,,,0.002422000000,  -0.02000,
,,,0.002422200000,  -0.02160,
,,,0.002422400000,  -0.02200,
,,,0.002422600000,  -0.02320,
,,,0.002422800000,  -0.02400,
,,,0.002423000000,  -0.02320,
,,,0.002423200000,  -0.02320,
,,,0.002423400000,  -0.02440,
,,,0.002423600000,  -0.02320,
,,,0.002423800000,  -0.02320,
,,,0.002424000000,  -0.02200,
,,,0.002424200000,  -0.02200,
,,,0.002424400000,  -0.02200,
,,,0.002424600000,  -0.02200,
,,,0.002424800000,  -0.02080,
,,,0.002425000000,  -0.02000,
,,,0.002425200000,  -0.01920,
,,,0.002425400000,  -0.01840,
,,,0.002425600000,  -0.01720,
,,,0.002425800000,  -0.01600,
,,,0.002426000000,  -0.01480,
,,,0.002426200000,  -0.01320,
,,,0.002426400000,  -0.01120,
,,,0.002426600000,  -0.00920,
,,,0.002426800000,  -0.00840,
,,,0.002427000000,  -0.00680,
,,,0.002427200000,  -0.00400,
,,,0.002427400000,  -0.00320,
,,,0.002427600000,  -0.00080,
,,,0.002427800000,   0.00040,
,,,0.002428000000,   0.00200,
,,,0.002428200000,   0.00360,
,,,0.002428400000,   0.00520,
,,,0.002428600000,   0.00680,
,,,0.002428800000,   0.00800,
,,,0.002429000000,   0.00920,
,,,0.002429200000,   0.01120,
,,,0.002429400000,   0.01280,
,,,0.002429600000,   0.01440,
,,,0.002429800000,   0.01560,
,,,0.002430000000,   0.01560,
,,,0.002430200000,   0.01640,
,,,0.002430400000,   0.01800,
,,,0.002430600000,   0.01960,
,,,0.002430800000,   0.01960,
,,,0.002431000000,   0.02040,
,,,0.002431200000,   0.02080,
,,,0.002431400000,   0.02080,
,,,0.002431600000,   0.02200,
,,,0.002431800000,   0.02200,
,,,0.002432000000,   0.02160,
,,,0.002432200000,   0.02200,
,,,0.002432400000,   0.02160,
,,,0.002432600000,   0.02160,
,,,0.002432800000,   0.02000,
,,,0.002433000000,   0.02040,
,,,0.002433200000,   0.01960,
,,,0.002433400000,   0.01800,
,,,0.002433600000,   0.01840,
,,,0.002433800000,   0.01640,
,,,0.002434000000,   0.01560,
,,,0.002434200000,   0.01480,
,,,0.002434400000,   0.01400,
,,,0.002434600000,   0.01280,
,,,0.002434800000,   0.01120,
,,,0.002435000000,   0.00920,
,,,0.002435200000,   0.00800,
,,,0.002435400000,   0.00640,
,,,0.002435600000,   0.00480,
,,,0.002435800000,   0.00280,
,,,0.002436000000,   0.00160,
,,,0.002436200000,   0.00040,
,,,0.002436400000,  -0.00080,
,,,0.002436600000,  -0.00280,
,,,0.002436800000,  -0.00440,
,,,0.002437000000,  -0.00560,
,,,0.002437200000,  -0.00720,
,,,0.002437400000,  -0.00920,
,,,0.002437600000,  -0.01080,
,,,0.002437800000,  -0.01320,
,,,0.002438000000,  -0.01280,
,,,0.002438200000,  -0.01440,
,,,0.002438400000,  -0.01520,
,,,0.002438600000,  -0.01640,
,,,0.002438800000,  -0.01800,
,,,0.002439000000,  -0.01920,
,,,0.002439200000,  -0.02080,
,,,0.002439400000,  -0.02080,
,,,0.002439600000,  -0.02080,
,,,0.002439800000,  -0.02200,
,,,0.002440000000,  -0.02200,
,,,0.002440200000,  -0.02240,
,,,0.002440400000,  -0.02280,
,,,0.002440600000,  -0.02200,
,,,0.002440800000,  -0.02280,
,,,0.002441000000,  -0.02320,
,,,0.002441200000,  -0.02160,
,,,0.002441400000,  -0.02120,
,,,0.002441600000,  -0.02040,
,,,0.002441800000,  -0.02000,
,,,0.002442000000,  -0.02000,
,,,0.002442200000,  -0.01920,
,,,0.002442400000,  -0.01880,
,,,0.002442600000,  -0.01680,
,,,0.002442800000,  -0.01600,
,,,0.002443000000,  -0.01400,
,,,0.002443200000,  -0.01360,
,,,0.002443400000,  -0.01240,
,,,0.002443600000,  -0.00960,
,,,0.002443800000,  -0.00880,
,,,0.002444000000,  -0.00760,
,,,0.002444200000,  -0.00560,
,,,0.002444400000,  -0.00520,
,,,0.002444600000,  -0.00280,
,,,0.002444800000,  -0.00120,
,,,0.002445000000,   0.00040,
,,,0.002445200000,   0.00120,
,,,0.002445400000,   0.00240,
,,,0.002445600000,   0.00480,
,,,0.002445800000,   0.00480,
,,,0.002446000000,   0.00640,
,,,0.002446200000,   0.00840,
,,,0.002446400000,   0.00960,
,,,0.002446600000,   0.01120,
,,,0.002446800000,   0.01160,
,,,0.002447000000,   0.01320,
,,,0.002447200000,   0.01440,
,,,0.002447400000,   0.01560,
,,,0.002447600000,   0.01600,
,,,0.002447800000,   0.01680,
,,,0.002448000000,   0.01760,
,,,0.002448200000,   0.01840,
,,,0.002448400000,   0.01760,
,,,0.002448600000,   0.01960,
,,,0.002448800000,   0.01920,
,,,0.002449000000,   0.01960,
,,,0.002449200000,   0.01960,
,,,0.002449400000,   0.01840,
,,,0.002449600000,   0.01920,
,,,0.002449800000,   0.01840,
,,,0.002450000000,   0.01880,
,,,0.002450200000,   0.01840,
,,,0.002450400000,   0.01760,
,,,0.002450600000,   0.01760,
,,,0.002450800000,   0.01640,
,,,0.002451000000,   0.01600,
,,,0.002451200000,   0.01440,
,,,0.002451400000,   0.01240,
,,,0.002451600000,   0.01280,
,,,0.002451800000,   0.01040,
,,,0.002452000000,   0.01000,
,,,0.002452200000,   0.00880,
,,,0.002452400000,   0.00680,
,,,0.002452600000,   0.00560,
,,,0.002452800000,   0.00440,
,,,0.002453000000,   0.00320,
,,,0.002453200000,   0.00120,
,,,0.002453400000,   0.00040,
,,,0.002453600000,  -0.00120,
,,,0.002453800000,  -0.00320,
,,,0.002454000000,  -0.00440,
,,,0.002454200000,  -0.00640,
,,,0.002454400000,  -0.00720,
,,,0.002454600000,  -0.00760,
,,,0.002454800000,  -0.01080,
,,,0.002455000000,  -0.01040,
,,,0.002455200000,  -0.01200,
,,,0.002455400000,  -0.01320,
,,,0.002455600000,  -0.01440,
,,,0.002455800000,  -0.01560,
,,,0.002456000000,  -0.01440,
,,,0.002456200000,  -0.01720,
,,,0.002456400000,  -0.01760,
,,,0.002456600000,  -0.01840,
,,,0.002456800000,  -0.01840,
,,,0.002457000000,  -0.01840,
,,,0.002457200000,  -0.01920,
,,,0.002457400000,  -0.01960,
,,,0.002457600000,  -0.01920,
,,,0.002457800000,  -0.01960,
,,,0.002458000000,  -0.01920,
,,,0.002458200000,  -0.01920,
,,,0.002458400000,  -0.01840,
,,,0.002458600000,  -0.01840,
,,,0.002458800000,  -0.01800,
,,,0.002459000000,  -0.01720,
,,,0.002459200000,  -0.01680,
,,,0.002459400000,  -0.01640,
,,,0.002459600000,  -0.01400,
,,,0.002459800000,  -0.01480,
,,,0.002460000000,  -0.01360,
,,,0.002460200000,  -0.01240,
,,,0.002460400000,  -0.01040,
,,,0.002460600000,  -0.00960,
,,,0.002460800000,  -0.01000,
,,,0.002461000000,  -0.00720,
,,,0.002461200000,  -0.00640,
,,,0.002461400000,  -0.00560,
,,,0.002461600000,  -0.00360,
,,,0.002461800000,  -0.00240,
,,,0.002462000000,  -0.00120,
,,,0.002462200000,  -0.00040,
,,,0.002462400000,   0.00120,
,,,0.002462600000,   0.00360,
,,,0.002462800000,   0.00400,
,,,0.002463000000,   0.00520,
,,,0.002463200000,   0.00640,
,,,0.002463400000,   0.00760,
,,,0.002463600000,   0.00920,
,,,0.002463800000,   0.00920,
,,,0.002464000000,   0.01120,
,,,0.002464200000,   0.01120,
,,,0.002464400000,   0.01280,
,,,0.002464600000,   0.01360,
,,,0.002464800000,   0.01400,
,,,0.002465000000,   0.01520,
,,,0.002465200000,   0.01480,
,,,0.002465400000,   0.01600,
,,,0.002465600000,   0.01680,
,,,0.002465800000,   0.01560,
,,,0.002466000000,   0.01640,
,,,0.002466200000,   0.01680,
,,,0.002466400000,   0.01640,
,,,0.002466600000,   0.01680,
,,,0.002466800000,   0.01680,
,,,0.002467000000,   0.01600,
,,,0.002467200000,   0.01560,
,,,0.002467400000,   0.01560,
,,,0.002467600000,   0.01480,
,,,0.002467800000,   0.01360,
,,,0.002468000000,   0.01320,
,,,0.002468200000,   0.01240,
,,,0.002468400000,   0.01120,
,,,0.002468600000,   0.01040,
,,,0.002468800000,   0.00920,
,,,0.002469000000,   0.00880,
,,,0.002469200000,   0.00720,
,,,0.002469400000,   0.00680,
,,,0.002469600000,   0.00520,
,,,0.002469800000,   0.00360,
,,,0.002470000000,   0.00200,
,,,0.002470200000,   0.00120,
,,,0.002470400000,  -0.00040,
,,,0.002470600000,  -0.00160,
,,,0.002470800000,  -0.00320,
,,,0.002471000000,  -0.00360,
,,,0.002471200000,  -0.00440,
,,,0.002471400000,  -0.00600,
,,,0.002471600000,  -0.00680,
,,,0.002471800000,  -0.00880,
,,,0.002472000000,  -0.00840,
,,,0.002472200000,  -0.01000,
,,,0.002472400000,  -0.01200,
,,,0.002472600000,  -0.01200,
,,,0.002472800000,  -0.01320,
,,,0.002473000000,  -0.01400,
,,,0.002473200000,  -0.01400,
,,,0.002473400000,  -0.01440,
,,,0.002473600000,  -0.01480,
,,,0.002473800000,  -0.01600,
,,,0.002474000000,  -0.01600,
,,,0.002474200000,  -0.01680,
,,,0.002474400000,  -0.01680,
,,,0.002474600000,  -0.01640,
,,,0.002474800000,  -0.01640,
,,,0.002475000000,  -0.01600,
,,,0.002475200000,  -0.01600,
,,,0.002475400000,  -0.01600,
,,,0.002475600000,  -0.01600,
,,,0.002475800000,  -0.01520,
,,,0.002476000000,  -0.01560,
,,,0.002476200000,  -0.01440,
,,,0.002476400000,  -0.01400,
,,,0.002476600000,  -0.01200,
,,,0.002476800000,  -0.01120,
,,,0.002477000000,  -0.01080,
,,,0.002477200000,  -0.01000,
,,,0.002477400000,  -0.00920,
,,,0.002477600000,  -0.00840,
,,,0.002477800000,  -0.00720,
,,,0.002478000000,  -0.00680,
,,,0.002478200000,  -0.00560,
,,,0.002478400000,  -0.00360,
,,,0.002478600000,  -0.00280,
,,,0.002478800000,  -0.00280,
,,,0.002479000000,  -0.00120,
,,,0.002479200000,   0.00040,
,,,0.002479400000,   0.00160,
,,,0.002479600000,   0.00280,
,,,0.002479800000,   0.00240,
,,,0.002480000000,   0.00440,
,,,0.002480200000,   0.00520,
,,,0.002480400000,   0.00640,
,,,0.002480600000,   0.00680,
,,,0.002480800000,   0.00880,
,,,0.002481000000,   0.00880,
,,,0.002481200000,   0.00960,
,,,0.002481400000,   0.01040,
,,,0.002481600000,   0.01160,
,,,0.002481800000,   0.01120,
,,,0.002482000000,   0.01200,
,,,0.002482200000,   0.01240,
,,,0.002482400000,   0.01240,
,,,0.002482600000,   0.01360,
,,,0.002482800000,   0.01320,
,,,0.002483000000,   0.01320,
,,,0.002483200000,   0.01320,
,,,0.002483400000,   0.01280,
,,,0.002483600000,   0.01360,
,,,0.002483800000,   0.01280,
,,,0.002484000000,   0.01160,
,,,0.002484200000,   0.01280,
,,,0.002484400000,   0.01080,
,,,0.002484600000,   0.01120,
,,,0.002484800000,   0.00960,
,,,0.002485000000,   0.01040,
,,,0.002485200000,   0.00960,
,,,0.002485400000,   0.00800,
,,,0.002485600000,   0.00840,
,,,0.002485800000,   0.00720,
,,,0.002486000000,   0.00640,
,,,0.002486200000,   0.00480,
,,,0.002486400000,   0.00400,
,,,0.002486600000,   0.00400,
,,,0.002486800000,   0.00240,
,,,0.002487000000,   0.00120,
,,,0.002487200000,   0.00040,
,,,0.002487400000,  -0.00040,
,,,0.002487600000,  -0.00160,
,,,0.002487800000,  -0.00240,
,,,0.002488000000,  -0.00400,
,,,0.002488200000,  -0.00400,
,,,0.002488400000,  -0.00600,
,,,0.002488600000,  -0.00640,
,,,0.002488800000,  -0.00680,
,,,0.002489000000,  -0.00760,
,,,0.002489200000,  -0.00840,
,,,0.002489400000,  -0.01040,
,,,0.002489600000,  -0.00960,
,,,0.002489800000,  -0.01000,
,,,0.002490000000,  -0.01120,
,,,0.002490200000,  -0.01200,
,,,0.002490400000,  -0.01280,
,,,0.002490600000,  -0.01360,
,,,0.002490800000,  -0.01200,
,,,0.002491000000,  -0.01360,
,,,0.002491200000,  -0.01200,
,,,0.002491400000,  -0.01320,
,,,0.002491600000,  -0.01240,
,,,0.002491800000,  -0.01360,
,,,0.002492000000,  -0.01320,
,,,0.002492200000,  -0.01240,
,,,0.002492400000,  -0.01280,
,,,0.002492600000,  -0.01240,
,,,0.002492800000,  -0.01200,
,,,0.002493000000,  -0.01120,
,,,0.002493200000,  -0.01080,
,,,0.002493400000,  -0.01000,
,,,0.002493600000,  -0.01000,
,,,0.002493800000,  -0.00880,
,,,0.002494000000,  -0.00920,
,,,0.002494200000,  -0.00760,
,,,0.002494400000,  -0.00760,
,,,0.002494600000,  -0.00600,
,,,0.002494800000,  -0.00480,
,,,0.002495000000,  -0.00480,
,,,0.002495200000,  -0.00320,
,,,0.002495400000,  -0.00320,
,,,0.002495600000,  -0.00120,
,,,0.002495800000,  -0.00080,
,,,0.002496000000,   0.00040,
,,,0.002496200000,   0.00120,
,,,0.002496400000,   0.00160,
,,,0.002496600000,   0.00240,
,,,0.002496800000,   0.00400,
,,,0.002497000000,   0.00440,
,,,0.002497200000,   0.00440,
,,,0.002497400000,   0.00600,
,,,0.002497600000,   0.00640,
,,,0.002497800000,   0.00760,
,,,0.002498000000,   0.00760,
,,,0.002498200000,   0.00880,
,,,0.002498400000,   0.00880,
,,,0.002498600000,   0.00880,
,,,0.002498800000,   0.00920,
,,,0.002499000000,   0.00920,
,,,0.002499200000,   0.00960,
,,,0.002499400000,   0.01000,
,,,0.002499600000,   0.00960,
,,,0.002499800000,   0.01040,
,,,0.002500000000,   0.00960,
,,,0.002500200000,   0.01000,
,,,0.002500400000,   0.00920,
,,,0.002500600000,   0.00920,
,,,0.002500800000,   0.01000,
,,,0.002501000000,   0.00880,
,,,0.002501200000,   0.00960,
,,,0.002501400000,   0.00920,
,,,0.002501600000,   0.00840,
,,,0.002501800000,   0.00760,
,,,0.002502000000,   0.00600,
,,,0.002502200000,   0.00680,
,,,0.002502400000,   0.00600,
,,,0.002502600000,   0.00600,
,,,0.002502800000,   0.00480,
,,,0.002503000000,   0.00400,
,,,0.002503200000,   0.00360,
,,,0.002503400000,   0.00160,
,,,0.002503600000,   0.00200,
,,,0.002503800000,   0.00080,
,,,0.002504000000,   0.00080,
,,,0.002504200000,  -0.00040,
,,,0.002504400000,  -0.00160,
,,,0.002504600000,  -0.00160,
,,,0.002504800000,  -0.00280,
,,,0.002505000000,  -0.00320,
,,,0.002505200000,  -0.00480,
,,,0.002505400000,  -0.00640,
,,,0.002505600000,  -0.00560,
,,,0.002505800000,  -0.00640,
,,,0.002506000000,  -0.00760,
,,,0.002506200000,  -0.00720,
,,,0.002506400000,  -0.00840,
,,,0.002506600000,  -0.00920,
,,,0.002506800000,  -0.00880,
,,,0.002507000000,  -0.00960,
,,,0.002507200000,  -0.00960,
,,,0.002507400000,  -0.01040,
,,,0.002507600000,  -0.01080,
,,,0.002507800000,  -0.01040,
,,,0.002508000000,  -0.01080,
,,,0.002508200000,  -0.01040,
,,,0.002508400000,  -0.01080,
,,,0.002508600000,  -0.01080,
,,,0.002508800000,  -0.01040,
,,,0.002509000000,  -0.01000,
,,,0.002509200000,  -0.01000,
,,,0.002509400000,  -0.01040,
,,,0.002509600000,  -0.00920,
,,,0.002509800000,  -0.00920,
,,,0.002510000000,  -0.00840,
,,,0.002510200000,  -0.00880,
,,,0.002510400000,  -0.00840,
,,,0.002510600000,  -0.00720,
,,,0.002510800000,  -0.00680,
,,,0.002511000000,  -0.00640,
,,,0.002511200000,  -0.00440,
,,,0.002511400000,  -0.00480,
,,,0.002511600000,  -0.00400,
,,,0.002511800000,  -0.00360,
,,,0.002512000000,  -0.00360,
,,,0.002512200000,  -0.00160,
,,,0.002512400000,  -0.00120,
,,,0.002512600000,  -0.00120,
,,,0.002512800000,  -0.00080,
,,,0.002513000000,   0.00000,
,,,0.002513200000,   0.00080,
,,,0.002513400000,   0.00120,
,,,0.002513600000,   0.00200,
,,,0.002513800000,   0.00320,
,,,0.002514000000,   0.00360,
,,,0.002514200000,   0.00400,
,,,0.002514400000,   0.00440,
,,,0.002514600000,   0.00480,
,,,0.002514800000,   0.00560,
,,,0.002515000000,   0.00560,
,,,0.002515200000,   0.00640,
,,,0.002515400000,   0.00640,
,,,0.002515600000,   0.00720,
,,,0.002515800000,   0.00720,
,,,0.002516000000,   0.00760,
,,,0.002516200000,   0.00760,
,,,0.002516400000,   0.00800,
,,,0.002516600000,   0.00840,
,,,0.002516800000,   0.00760,
,,,0.002517000000,   0.00800,
,,,0.002517200000,   0.00840,
,,,0.002517400000,   0.00720,
,,,0.002517600000,   0.00840,
,,,0.002517800000,   0.00800,
,,,0.002518000000,   0.00600,
,,,0.002518200000,   0.00640,
,,,0.002518400000,   0.00560,
,,,0.002518600000,   0.00600,
,,,0.002518800000,   0.00520,
,,,0.002519000000,   0.00520,
,,,0.002519200000,   0.00520,
,,,0.002519400000,   0.00360,
,,,0.002519600000,   0.00320,
,,,0.002519800000,   0.00280,
,,,0.002520000000,   0.00120,
,,,0.002520200000,   0.00120,
,,,0.002520400000,   0.00080,
,,,0.002520600000,   0.00080,
,,,0.002520800000,   0.00000,
,,,0.002521000000,  -0.00120,
,,,0.002521200000,  -0.00120,
,,,0.002521400000,  -0.00200,
,,,0.002521600000,  -0.00200,
,,,0.002521800000,  -0.00400,
,,,0.002522000000,  -0.00360,
,,,0.002522200000,  -0.00360,
,,,0.002522400000,  -0.00520,
,,,0.002522600000,  -0.00480,
,,,0.002522800000,  -0.00600,
,,,0.002523000000,  -0.00640,
,,,0.002523200000,  -0.00600,
,,,0.002523400000,  -0.00720,
,,,0.002523600000,  -0.00800,
,,,0.002523800000,  -0.00680,
,,,0.002524000000,  -0.00760,
,,,0.002524200000,  -0.00760,
,,,0.002524400000,  -0.00720,
,,,0.002524600000,  -0.00800,
,,,0.002524800000,  -0.00760,
,,,0.002525000000,  -0.00800,
,,,0.002525200000,  -0.00880,
,,,0.002525400000,  -0.00840,
,,,0.002525600000,  -0.00800,
,,,0.002525800000,  -0.00760,
,,,0.002526000000,  -0.00760,
,,,0.002526200000,  -0.00720,
,,,0.002526400000,  -0.00680,
,,,0.002526600000,  -0.00680,
,,,0.002526800000,  -0.00640,
,,,0.002527000000,  -0.00560,
,,,0.002527200000,  -0.00480,
,,,0.002527400000,  -0.00560,
,,,0.002527600000,  -0.00440,
,,,0.002527800000,  -0.00400,
,,,0.002528000000,  -0.00400,
,,,0.002528200000,  -0.00320,
,,,0.002528400000,  -0.00240,
,,,0.002528600000,  -0.00240,
,,,0.002528800000,  -0.00200,
,,,0.002529000000,  -0.00240,
,,,0.002529200000,  -0.00120,
,,,0.002529400000,  -0.00080,
,,,0.002529600000,   0.00000,
,,,0.002529800000,   0.00080,
,,,0.002530000000,  -0.00040,
,,,0.002530200000,   0.00120,
,,,0.002530400000,   0.00160,
,,,0.002530600000,   0.00240,
,,,0.002530800000,   0.00240,
,,,0.002531000000,   0.00280,
,,,0.002531200000,   0.00360,
,,,0.002531400000,   0.00440,
,,,0.002531600000,   0.00360,
,,,0.002531800000,   0.00480,
,,,0.002532000000,   0.00480,
,,,0.002532200000,   0.00520,
,,,0.002532400000,   0.00480,
,,,0.002532600000,   0.00600,
,,,0.002532800000,   0.00600,
,,,0.002533000000,   0.00520,
,,,0.002533200000,   0.00600,
,,,0.002533400000,   0.00560,
,,,0.002533600000,   0.00520,
,,,0.002533800000,   0.00600,
,,,0.002534000000,   0.00520,
,,,0.002534200000,   0.00560,
,,,0.002534400000,   0.00480,
,,,0.002534600000,   0.00480,
,,,0.002534800000,   0.00440,
,,,0.002535000000,   0.00360,
,,,0.002535200000,   0.00440,
,,,0.002535400000,   0.00400,
,,,0.002535600000,   0.00400,
,,,0.002535800000,   0.00360,
,,,0.002536000000,   0.00360,
,,,0.002536200000,   0.00320,
,,,0.002536400000,   0.00160,
,,,0.002536600000,   0.00120,
,,,0.002536800000,   0.00080,
,,,0.002537000000,   0.00000,
,,,0.002537200000,   0.00040,
,,,0.002537400000,  -0.00040,
,,,0.002537600000,  -0.00080,
,,,0.002537800000,  -0.00160,
,,,0.002538000000,  -0.00200,
,,,0.002538200000,  -0.00200,
,,,0.002538400000,  -0.00280,
,,,0.002538600000,  -0.00280,
,,,0.002538800000,  -0.00280,
,,,0.002539000000,  -0.00440,
,,,0.002539200000,  -0.00440,
,,,0.002539400000,  -0.00360,
,,,0.002539600000,  -0.00400,
,,,0.002539800000,  -0.00440,
,,,0.002540000000,  -0.00600,
,,,0.002540200000,  -0.00520,
,,,0.002540400000,  -0.00520,
,,,0.002540600000,  -0.00600,
,,,0.002540800000,  -0.00520,
,,,0.002541000000,  -0.00560,
,,,0.002541200000,  -0.00600,
,,,0.002541400000,  -0.00640,
,,,0.002541600000,  -0.00600,
,,,0.002541800000,  -0.00640,
,,,0.002542000000,  -0.00640,
,,,0.002542200000,  -0.00600,
,,,0.002542400000,  -0.00600,
,,,0.002542600000,  -0.00600,
,,,0.002542800000,  -0.00560,
,,,0.002543000000,  -0.00600,
,,,0.002543200000,  -0.00440,
,,,0.002543400000,  -0.00560,
,,,0.002543600000,  -0.00480,
,,,0.002543800000,  -0.00520,
,,,0.002544000000,  -0.00560,
,,,0.002544200000,  -0.00480,
,,,0.002544400000,  -0.00440,
,,,0.002544600000,  -0.00320,
,,,0.002544800000,  -0.00400,
,,,0.002545000000,  -0.00400,
,,,0.002545200000,  -0.00160,
,,,0.002545400000,  -0.00200,
,,,0.002545600000,  -0.00200,
,,,0.002545800000,  -0.00160,
,,,0.002546000000,  -0.00080,
,,,0.002546200000,   0.00000,
,,,0.002546400000,   0.00000,
,,,0.002546600000,   0.00000,
,,,0.002546800000,   0.00120,
,,,0.002547000000,   0.00040,
,,,0.002547200000,   0.00120,
,,,0.002547400000,   0.00120,
,,,0.002547600000,   0.00200,
,,,0.002547800000,   0.00240,
,,,0.002548000000,   0.00200,
,,,0.002548200000,   0.00280,
,,,0.002548400000,   0.00240,
,,,0.002548600000,   0.00280,
,,,0.002548800000,   0.00360,
,,,0.002549000000,   0.00320,
,,,0.002549200000,   0.00480,
,,,0.002549400000,   0.00320,
,,,0.002549600000,   0.00360,
,,,0.002549800000,   0.00440,
,,,0.002550000000,   0.00360,
,,,0.002550200000,   0.00440,
,,,0.002550400000,   0.00360,
,,,0.002550600000,   0.00400,
,,,0.002550800000,   0.00400,
,,,0.002551000000,   0.00400,
,,,0.002551200000,   0.00360,
,,,0.002551400000,   0.00280,
,,,0.002551600000,   0.00320,
,,,0.002551800000,   0.00320,
,,,0.002552000000,   0.00280,
,,,0.002552200000,   0.00280,
,,,0.002552400000,   0.00200,
,,,0.002552600000,   0.00200,
,,,0.002552800000,   0.00240,
,,,0.002553000000,   0.00120,
,,,0.002553200000,   0.00240,
,,,0.002553400000,   0.00080,
,,,0.002553600000,   0.00080,
,,,0.002553800000,   0.00120,
,,,0.002554000000,  -0.00040,
,,,0.002554200000,   0.00040,
,,,0.002554400000,  -0.00040,
,,,0.002554600000,  -0.00120,
,,,0.002554800000,  -0.00120,
,,,0.002555000000,  -0.00200,
,,,0.002555200000,  -0.00120,
,,,0.002555400000,  -0.00200,
,,,0.002555600000,  -0.00240,
,,,0.002555800000,  -0.00240,
,,,0.002556000000,  -0.00240,
,,,0.002556200000,  -0.00280,
,,,0.002556400000,  -0.00240,
,,,0.002556600000,  -0.00360,
,,,0.002556800000,  -0.00400,
,,,0.002557000000,  -0.00400,
,,,0.002557200000,  -0.00360,
,,,0.002557400000,  -0.00480,
,,,0.002557600000,  -0.00400,
,,,0.002557800000,  -0.00400,
,,,0.002558000000,  -0.00560,
,,,0.002558200000,  -0.00400,
,,,0.002558400000,  -0.00480,
,,,0.002558600000,  -0.00440,
,,,0.002558800000,  -0.00520,
,,,0.002559000000,  -0.00440,
,,,0.002559200000,  -0.00440,
,,,0.002559400000,  -0.00520,
,,,0.002559600000,  -0.00520,
,,,0.002559800000,  -0.00480,
,,,0.002560000000,  -0.00440,
,,,0.002560200000,  -0.00400,
,,,0.002560400000,  -0.00400,
,,,0.002560600000,  -0.00360,
,,,0.002560800000,  -0.00240,
,,,0.002561000000,  -0.00400,
,,,0.002561200000,  -0.00240,
,,,0.002561400000,  -0.00320,
,,,0.002561600000,  -0.00160,
,,,0.002561800000,  -0.00200,
,,,0.002562000000,  -0.00240,
,,,0.002562200000,  -0.00120,
,,,0.002562400000,  -0.00120,
,,,0.002562600000,  -0.00080,
,,,0.002562800000,  -0.00120,
,,,0.002563000000,  -0.00120,
,,,0.002563200000,  -0.00080,
,,,0.002563400000,  -0.00080,
,,,0.002563600000,  -0.00040,
,,,0.002563800000,   0.00000,
,,,0.002564000000,   0.00040,
,,,0.002564200000,   0.00040,
,,,0.002564400000,   0.00040,
,,,0.002564600000,   0.00120,
,,,0.002564800000,   0.00040,
,,,0.002565000000,   0.00120,
,,,0.002565200000,   0.00160,
,,,0.002565400000,   0.00080,
,,,0.002565600000,   0.00160,
,,,0.002565800000,   0.00160,
,,,0.002566000000,   0.00200,
,,,0.002566200000,   0.00160,
,,,0.002566400000,   0.00200,
,,,0.002566600000,   0.00200,
,,,0.002566800000,   0.00160,
,,,0.002567000000,   0.00240,
,,,0.002567200000,   0.00280,
,,,0.002567400000,   0.00200,
,,,0.002567600000,   0.00200,
,,,0.002567800000,   0.00240,
,,,0.002568000000,   0.00200,
,,,0.002568200000,   0.00240,
,,,0.002568400000,   0.00160,
,,,0.002568600000,   0.00200,
,,,0.002568800000,   0.00160,
,,,0.002569000000,   0.00160,
,,,0.002569200000,   0.00200,
,,,0.002569400000,   0.00160,
,,,0.002569600000,   0.00160,
,,,0.002569800000,   0.00080,
,,,0.002570000000,   0.00040,
,,,0.002570200000,   0.00120,
,,,0.002570400000,   0.00120,
,,,0.002570600000,   0.00080,
,,,0.002570800000,   0.00040,
,,,0.002571000000,   0.00000,
,,,0.002571200000,  -0.00040,
,,,0.002571400000,  -0.00080,
,,,0.002571600000,  -0.00040,
,,,0.002571800000,  -0.00080,
,,,0.002572000000,  -0.00120,
,,,0.002572200000,  -0.00080,
,,,0.002572400000,  -0.00160,
,,,0.002572600000,  -0.00120,
,,,0.002572800000,  -0.00080,
,,,0.002573000000,  -0.00120,
,,,0.002573200000,  -0.00120,
,,,0.002573400000,  -0.00240,
,,,0.002573600000,  -0.00160,
,,,0.002573800000,  -0.00200,
,,,0.002574000000,  -0.00280,
,,,0.002574200000,  -0.00280,
,,,0.002574400000,  -0.00360,
,,,0.002574600000,  -0.00240,
,,,0.002574800000,  -0.00200,
,,,0.002575000000,  -0.00240,
,,,0.002575200000,  -0.00280,
,,,0.002575400000,  -0.00240,
,,,0.002575600000,  -0.00280,
,,,0.002575800000,  -0.00320,
,,,0.002576000000,  -0.00240,
,,,0.002576200000,  -0.00320,
,,,0.002576400000,  -0.00360,
,,,0.002576600000,  -0.00240,
,,,0.002576800000,  -0.00240,
,,,0.002577000000,  -0.00240,
,,,0.002577200000,  -0.00160,
,,,0.002577400000,  -0.00280,
,,,0.002577600000,  -0.00160,
,,,0.002577800000,  -0.00200,
